(module Elfa-Diode-300-92-882 (layer F.Cu) (tedit 6038F4B4)
  (fp_text reference REF** (at 6 -3) (layer F.SilkS)
    (effects (font (size 1 1) (thickness 0.15)))
  )
  (fp_text value Elfa-Diode-300-92-882 (at 6 3) (layer F.Fab)
    (effects (font (size 1 1) (thickness 0.15)))
  )
  (fp_line (start 3.5 1.25) (end 3.5 -1.25) (layer F.Fab) (width 0.3))
  (fp_line (start 7.7 1.35) (end 2.5 1.35) (layer F.Fab) (width 0.12))
  (fp_line (start 2.5 -1.35) (end 7.7 -1.35) (layer F.Fab) (width 0.12))
  (fp_line (start 7.7 1.35) (end 7.7 -1.35) (layer F.Fab) (width 0.12))
  (fp_line (start 9.2 0) (end 7.7 0) (layer F.Fab) (width 0.12))
  (fp_line (start 2.5 0) (end 1 0) (layer F.Fab) (width 0.12))
  (fp_line (start 2.5 1.35) (end 2.5 -1.35) (layer F.Fab) (width 0.12))
  (pad 2 thru_hole circle (at 10.2 0) (size 1.524 1.524) (drill 0.762) (layers *.Cu *.Mask))
  (pad 1 thru_hole rect (at 0 0) (size 1.524 1.524) (drill 0.762) (layers *.Cu *.Mask))
)
