(module TIP112-Elfa-171-00-070 (layer F.Cu) (tedit 603F4A9D)
  (fp_text reference REF** (at 3 -4.5) (layer F.SilkS)
    (effects (font (size 1 1) (thickness 0.15)))
  )
  (fp_text value TIP112-Elfa-171-00-070 (at 3 4) (layer F.Fab)
    (effects (font (size 1 1) (thickness 0.15)))
  )
  (fp_line (start -2.794 1.9939) (end 7.874 1.9939) (layer F.SilkS) (width 0.1524))
  (fp_circle (center -4.572 0) (end -4.3688 0) (layer F.SilkS) (width 0.1524))
  (fp_line (start -2.921 2.1209) (end -2.921 -2.9845) (layer F.CrtYd) (width 0.1524))
  (fp_line (start 7.874 -2.8575) (end -2.794 -2.8575) (layer F.SilkS) (width 0.1524))
  (fp_line (start 7.747 -2.7305) (end -2.667 -2.7305) (layer F.Fab) (width 0.1524))
  (fp_circle (center -2.159 0) (end -1.9558 0) (layer F.Fab) (width 0.1524))
  (fp_line (start -2.794 -2.8575) (end -2.794 1.9939) (layer F.SilkS) (width 0.1524))
  (fp_line (start 7.874 1.9939) (end 7.874 -2.8575) (layer F.SilkS) (width 0.1524))
  (fp_line (start -2.667 -2.7305) (end -2.667 1.8669) (layer F.Fab) (width 0.1524))
  (fp_line (start 8.001 2.1209) (end -2.921 2.1209) (layer F.CrtYd) (width 0.1524))
  (fp_line (start -2.667 1.8669) (end 7.747 1.8669) (layer F.Fab) (width 0.1524))
  (fp_line (start 8.001 -2.9845) (end 8.001 2.1209) (layer F.CrtYd) (width 0.1524))
  (fp_line (start 7.747 1.8669) (end 7.747 -2.7305) (layer F.Fab) (width 0.1524))
  (fp_line (start -0.254 0) (end 0.254 0) (layer F.Fab) (width 0.1524))
  (fp_line (start 0 0.254) (end 0 -0.254) (layer F.Fab) (width 0.1524))
  (fp_line (start -2.921 -2.9845) (end 8.001 -2.9845) (layer F.CrtYd) (width 0.1524))
  (fp_text user "Copyright 2016 Accelerated Designs. All rights reserved." (at 0 0) (layer Cmts.User)
    (effects (font (size 0.127 0.127) (thickness 0.002)))
  )
  (pad 2 thru_hole circle (at 2.54 0) (size 1.651 1.651) (drill 1.143) (layers *.Cu *.Mask))
  (pad 1 thru_hole rect (at 0 0) (size 1.651 1.651) (drill 1.143) (layers *.Cu *.Mask))
  (pad 3 thru_hole circle (at 5.08 0) (size 1.651 1.651) (drill 1.143) (layers *.Cu *.Mask))
)
