(module TIP112_heat_2 (layer F.Cu) (tedit 60A3BE1B)
  (descr "SIPAK, Horizontal, RM 2.286mm")
  (tags "SIPAK Horizontal RM 2.286mm")
  (fp_text reference Q1 (at 2 -20.5) (layer F.SilkS)
    (effects (font (size 1 1) (thickness 0.15)))
  )
  (fp_text value Q_NPN_Darlington_BCE (at 2 3 -180) (layer F.Fab)
    (effects (font (size 1 1) (thickness 0.15)))
  )
  (fp_text user %R (at 2 -22 -180) (layer F.Fab)
    (effects (font (size 1 1) (thickness 0.15)))
  )
  (fp_line (start 7.5 -3.5) (end 7.5 -17.5) (layer F.SilkS) (width 0.12))
  (fp_line (start 7.5 -17.5) (end 5.5 -19.5) (layer F.SilkS) (width 0.12))
  (fp_line (start 5.5 -19.5) (end -0.5 -19.5) (layer F.SilkS) (width 0.12))
  (fp_line (start -0.5 -19.5) (end -2.5 -17.5) (layer F.SilkS) (width 0.12))
  (fp_line (start -2.5 -17.5) (end -2.5 -3.5) (layer F.SilkS) (width 0.12))
  (fp_line (start -2.5 -3.5) (end 7.5 -3.5) (layer F.SilkS) (width 0.12))
  (fp_circle (center 2.5 -16.4) (end 4.35 -16.4) (layer F.SilkS) (width 0.12))
  (fp_line (start -2.5 -12.5) (end 7.5 -12.5) (layer F.SilkS) (width 0.12))
  (fp_line (start 0 -3.5) (end 0 -1) (layer F.SilkS) (width 0.12))
  (fp_line (start 2.5 -3.5) (end 2.5 -1) (layer F.SilkS) (width 0.12))
  (fp_line (start 5 -3.5) (end 5 -1) (layer F.SilkS) (width 0.12))
  (pad "" np_thru_hole circle (at 2.5 -16.4 90) (size 3.5 3.5) (drill 3.5) (layers *.Cu *.Mask))
  (pad 1 thru_hole rect (at 0 0 90) (size 1.7145 1.8) (drill 1) (layers *.Cu *.Mask))
  (pad 2 thru_hole oval (at 2.5 0 90) (size 1.7145 1.8) (drill 1) (layers *.Cu *.Mask))
  (pad 3 thru_hole oval (at 5 0 90) (size 1.7145 1.8) (drill 1) (layers *.Cu *.Mask))
  (model ${KISYS3DMOD}/Package_TO_SOT_THT.3dshapes/SIPAK-1EP_Horizontal_TabDown.wrl
    (at (xyz 0 0 0))
    (scale (xyz 1 1 1))
    (rotate (xyz 0 0 0))
  )
)
