EESchema Schematic File Version 4
EELAYER 30 0
EELAYER END
$Descr A3 16535 11693
encoding utf-8
Sheet 1 1
Title ""
Date "15 nov 2012"
Rev ""
Comp ""
Comment1 ""
Comment2 "creativecommons.org/licenses/by/4.0/"
Comment3 "License: CC BY 4.0"
Comment4 "Author: Alexander Ekman"
$EndDescr
$Comp
L Device:C C12
U 1 1 603CAF99
P 2400 1250
F 0 "C12" H 2515 1296 50  0000 L CNN
F 1 "0.01µf" H 2515 1205 50  0000 L CNN
F 2 "Capacitor_THT:C_Rect_L7.2mm_W3.5mm_P5.00mm_FKS2_FKP2_MKS2_MKP2" H 2438 1100 50  0001 C CNN
F 3 "~" H 2400 1250 50  0001 C CNN
	1    2400 1250
	1    0    0    1   
$EndComp
$Comp
L Device:R R1
U 1 1 603120B9
P 1350 1300
F 0 "R1" V 1143 1300 50  0000 C CNN
F 1 "R" V 1234 1300 50  0000 C CNN
F 2 "111_my_footprints:R_Axial_DIN0207_L6.3mm_D2.5mm_P10.16mm_Horizontal" V 1280 1300 50  0001 C CNN
F 3 "~" H 1350 1300 50  0001 C CNN
	1    1350 1300
	0    -1   1    0   
$EndComp
$Comp
L Device:R R2
U 1 1 60341D73
P 1350 1700
F 0 "R2" V 1143 1700 50  0000 C CNN
F 1 "R" V 1234 1700 50  0000 C CNN
F 2 "111_my_footprints:R_Axial_DIN0207_L6.3mm_D2.5mm_P10.16mm_Horizontal" V 1280 1700 50  0001 C CNN
F 3 "~" H 1350 1700 50  0001 C CNN
	1    1350 1700
	0    -1   1    0   
$EndComp
Wire Wire Line
	1200 1300 1100 1300
Text Label 1000 1300 2    50   ~ 0
NTC1
Wire Wire Line
	1200 1700 1100 1700
Text Label 1000 1700 2    50   ~ 0
NTC2
Wire Wire Line
	1500 1300 1500 1100
Wire Wire Line
	6200 3100 5700 3100
Wire Wire Line
	6200 3200 5700 3200
Wire Wire Line
	6200 3300 5700 3300
Wire Wire Line
	6200 3400 5700 3400
Text Label 5700 3100 0    50   ~ 0
POL_SW_1
Text Label 5700 3200 0    50   ~ 0
POL_SW_2
Text Label 5700 3300 0    50   ~ 0
POL_SW_3
Text Label 5700 3400 0    50   ~ 0
POL_SW_4
$Comp
L Connector:Conn_01x06_Female J7
U 1 1 606D1863
P 6400 3100
F 0 "J7" H 6428 3076 50  0000 L CNN
F 1 "Conn_01x06_Female" H 6428 2985 50  0000 L CNN
F 2 "Connector_PinSocket_2.54mm:PinSocket_1x06_P2.54mm_Horizontal" H 6400 3100 50  0001 C CNN
F 3 "~" H 6400 3100 50  0001 C CNN
	1    6400 3100
	1    0    0    -1  
$EndComp
Wire Wire Line
	2350 6050 800  6050
Text Label 800  6050 0    50   ~ 0
POL_SW_4
Wire Wire Line
	2250 7350 2250 7050
Wire Wire Line
	2950 6750 2950 6050
Wire Wire Line
	3050 7950 3050 7150
Wire Wire Line
	2950 6050 2950 5900
Wire Wire Line
	2250 7050 2250 6550
Wire Wire Line
	2250 6550 2250 6350
Wire Wire Line
	2150 7950 2150 7850
Text Label 1300 6050 0    50   ~ 0
GPIO21(SPI1_SCK)
$Comp
L Connector_Generic:Conn_02x20_Odd_Even P1
U 1 1 59AD464A
P 2650 7050
F 0 "P1" H 2700 8167 50  0000 C CNN
F 1 "Conn_02x20_Odd_Even" H 2700 8076 50  0000 C CNN
F 2 "Connector_PinSocket_2.54mm:PinSocket_2x20_P2.54mm_Vertical" H -2200 6100 50  0001 C CNN
F 3 "" H -2200 6100 50  0001 C CNN
	1    2650 7050
	-1   0    0    1   
$EndComp
Connection ~ 2250 7350
Wire Wire Line
	2250 7750 2350 7750
Text Label 1300 7650 0    50   ~ 0
GPIO14(TXD0)
Text Label 1300 7550 0    50   ~ 0
GPIO15(RXD0)
Text Label 1300 7450 0    50   ~ 0
GPIO18(GEN1)(PWM0)
Text Label 1300 7250 0    50   ~ 0
GPIO23(GEN4)
Text Label 1300 7150 0    50   ~ 0
GPIO24(GEN5)
Text Label 1300 6950 0    50   ~ 0
GPIO25(GEN6)
Text Label 1300 6850 0    50   ~ 0
GPIO8(SPI0_CE_N)
Text Label 1300 6750 0    50   ~ 0
GPIO7(SPI1_CE_N)
Text Label 1300 6650 0    50   ~ 0
ID_SC
Text Label 1300 6450 0    50   ~ 0
GPIO12(PWM0)
Text Label 1300 6250 0    50   ~ 0
GPIO16
Text Label 4000 6150 2    50   ~ 0
GPIO26
Text Label 4000 6250 2    50   ~ 0
GPIO19(SPI1_MISO)
Text Label 4000 6350 2    50   ~ 0
GPIO13(PWM1)
Text Label 4000 6450 2    50   ~ 0
GPIO6
Text Label 4000 6650 2    50   ~ 0
ID_SD
Text Label 4000 6850 2    50   ~ 0
GPIO11(SPI0_SCK)
Text Label 4000 6950 2    50   ~ 0
GPIO9(SPI0_MISO)
Text Label 4000 7050 2    50   ~ 0
GPIO10(SPI0_MOSI)
Text Label 4000 7250 2    50   ~ 0
GPIO22(GEN3)
Text Label 4000 7350 2    50   ~ 0
GPIO27(GEN2)
Text Label 4000 7450 2    50   ~ 0
GPIO17(GEN0)
Text Label 4000 7650 2    50   ~ 0
GPIO4(GCLK)
Text Label 4000 7750 2    50   ~ 0
GPIO3(SCL1)
Text Label 4000 7850 2    50   ~ 0
GPIO2(SDA1)
Wire Wire Line
	2350 7650 1300 7650
Wire Wire Line
	2350 7450 1300 7450
Wire Wire Line
	2350 7550 1300 7550
Wire Wire Line
	2350 7150 1300 7150
Wire Wire Line
	2350 7250 1300 7250
Wire Wire Line
	2350 6850 1300 6850
Wire Wire Line
	2350 6950 1300 6950
Wire Wire Line
	2350 6650 1300 6650
Wire Wire Line
	2350 6750 1300 6750
Wire Wire Line
	4000 6450 2850 6450
Wire Wire Line
	2850 6650 4000 6650
Wire Wire Line
	4000 6850 2850 6850
Wire Wire Line
	2850 7050 4000 7050
Wire Wire Line
	4000 7250 2850 7250
Wire Wire Line
	4000 7350 2850 7350
Wire Wire Line
	2850 7450 4000 7450
Wire Wire Line
	4000 7650 2850 7650
Wire Wire Line
	4000 7750 2850 7750
Wire Wire Line
	2850 7850 4000 7850
Connection ~ 2950 6750
Wire Wire Line
	2950 7550 2850 7550
$Comp
L power:+3.3V #PWR015
U 1 1 580C1BC1
P 3050 8100
F 0 "#PWR015" H 3050 7950 50  0001 C CNN
F 1 "+3.3V" H 3050 8240 50  0000 C CNN
F 2 "" H 3050 8100 50  0000 C CNN
F 3 "" H 3050 8100 50  0000 C CNN
	1    3050 8100
	-1   0    0    1   
$EndComp
Wire Wire Line
	3050 8100 3050 7950
Wire Wire Line
	3050 7950 2850 7950
Wire Wire Line
	3050 7150 2850 7150
Connection ~ 3050 7950
Connection ~ 2950 6050
Wire Wire Line
	2950 6750 2850 6750
Wire Wire Line
	2950 7550 2950 6750
Wire Wire Line
	2950 6050 2850 6050
$Comp
L power:GND #PWR014
U 1 1 580C1E01
P 2950 5900
F 0 "#PWR014" H 2950 5650 50  0001 C CNN
F 1 "GND" H 2950 5750 50  0000 C CNN
F 2 "" H 2950 5900 50  0000 C CNN
F 3 "" H 2950 5900 50  0000 C CNN
	1    2950 5900
	-1   0    0    1   
$EndComp
Connection ~ 2250 7050
Wire Wire Line
	2250 7350 2350 7350
Connection ~ 2250 6550
Wire Wire Line
	2250 7050 2350 7050
Connection ~ 2250 6350
Wire Wire Line
	2250 6550 2350 6550
Wire Wire Line
	2250 6350 2350 6350
Wire Wire Line
	2250 7750 2250 7350
$Comp
L power:GND #PWR013
U 1 1 580C1D11
P 2250 5900
F 0 "#PWR013" H 2250 5650 50  0001 C CNN
F 1 "GND" H 2250 5750 50  0000 C CNN
F 2 "" H 2250 5900 50  0000 C CNN
F 3 "" H 2250 5900 50  0000 C CNN
	1    2250 5900
	-1   0    0    1   
$EndComp
Connection ~ 2150 7950
Wire Wire Line
	2150 7850 2350 7850
Wire Wire Line
	2150 7950 2350 7950
Wire Wire Line
	2150 8100 2150 7950
$Comp
L power:+5V #PWR012
U 1 1 580C1B61
P 2150 8100
F 0 "#PWR012" H 2150 7950 50  0001 C CNN
F 1 "+5V" H 2150 8240 50  0000 C CNN
F 2 "" H 2150 8100 50  0000 C CNN
F 3 "" H 2150 8100 50  0000 C CNN
	1    2150 8100
	-1   0    0    1   
$EndComp
Text Label 10750 1050 0    50   ~ 0
NTC1
Text Label 10750 1250 0    50   ~ 0
NTC2
Text Label 10750 1450 0    50   ~ 0
NTC3
Text Label 10750 1650 0    50   ~ 0
NTC4
Text Label 10750 1850 0    50   ~ 0
NTC5
Text Label 10750 2050 0    50   ~ 0
NTC6
Text Label 10750 2250 0    50   ~ 0
NTC7
Text Label 10750 2450 0    50   ~ 0
NTC8
Text Label 10750 2650 0    50   ~ 0
NTC9
Text Label 10750 2850 0    50   ~ 0
NTC10
$Comp
L power:GND #PWR028
U 1 1 60813CA2
P 5750 2900
F 0 "#PWR028" H 5750 2650 50  0001 C CNN
F 1 "GND" H 5750 2750 50  0000 C CNN
F 2 "" H 5750 2900 50  0000 C CNN
F 3 "" H 5750 2900 50  0000 C CNN
	1    5750 2900
	0    1    1    0   
$EndComp
Wire Wire Line
	5750 2900 6200 2900
Wire Wire Line
	4000 6950 2850 6950
Wire Wire Line
	2850 6550 4000 6550
Text Label 4000 6550 2    50   ~ 0
GPIO5
Text Label 1500 650  3    50   ~ 0
5p1V
Wire Wire Line
	1500 650  1500 1100
Text Label 10650 4450 0    50   ~ 0
GND_PLATE
Text Label 10650 4650 0    50   ~ 0
5p1V
Text Label 8300 4550 0    50   ~ 0
GND_PLATE
Wire Wire Line
	8300 4550 8750 4550
Text Label 8300 4750 0    50   ~ 0
5p1V
Wire Wire Line
	8300 4750 8750 4750
$Comp
L Connector_Generic:Conn_01x02 NTC1
U 1 1 60454891
P 7950 1050
F 0 "NTC1" H 8150 1050 50  0000 L CNN
F 1 "Conn_01x02" H 8250 950 50  0000 C CNN
F 2 "111_my_footprints:B2B-XH-A(LF)(SN)" H 7950 1050 50  0001 C CNN
F 3 "~" H 7950 1050 50  0001 C CNN
	1    7950 1050
	-1   0    0    -1  
$EndComp
Text Label 8600 1050 2    50   ~ 0
GND_PLATE
Wire Wire Line
	8150 1150 8750 1150
Wire Wire Line
	8150 1050 8650 1050
$Comp
L Connector_Generic:Conn_01x02 NTC2
U 1 1 604BD580
P 7950 1250
F 0 "NTC2" H 8150 1250 50  0000 L CNN
F 1 "Conn_01x02" H 8250 1150 50  0000 C CNN
F 2 "111_my_footprints:B2B-XH-A(LF)(SN)" H 7950 1250 50  0001 C CNN
F 3 "~" H 7950 1250 50  0001 C CNN
	1    7950 1250
	-1   0    0    -1  
$EndComp
Text Label 8600 1250 2    50   ~ 0
GND_PLATE
Wire Wire Line
	8150 1350 8750 1350
Wire Wire Line
	8150 1250 8650 1250
$Comp
L Connector_Generic:Conn_01x02 NTC3
U 1 1 604C666F
P 7950 1450
F 0 "NTC3" H 8150 1450 50  0000 L CNN
F 1 "Conn_01x02" H 8250 1350 50  0000 C CNN
F 2 "111_my_footprints:B2B-XH-A(LF)(SN)" H 7950 1450 50  0001 C CNN
F 3 "~" H 7950 1450 50  0001 C CNN
	1    7950 1450
	-1   0    0    -1  
$EndComp
Text Label 8600 1450 2    50   ~ 0
GND_PLATE
Wire Wire Line
	8150 1550 8750 1550
Wire Wire Line
	8150 1450 8650 1450
$Comp
L Connector_Generic:Conn_01x02 NTC4
U 1 1 604CF93B
P 7950 1650
F 0 "NTC4" H 8150 1650 50  0000 L CNN
F 1 "Conn_01x02" H 8250 1550 50  0000 C CNN
F 2 "111_my_footprints:B2B-XH-A(LF)(SN)" H 7950 1650 50  0001 C CNN
F 3 "~" H 7950 1650 50  0001 C CNN
	1    7950 1650
	-1   0    0    -1  
$EndComp
Text Label 8600 1650 2    50   ~ 0
GND_PLATE
Wire Wire Line
	8150 1750 8750 1750
Wire Wire Line
	8150 1650 8650 1650
$Comp
L Connector_Generic:Conn_01x02 NTC5
U 1 1 604D8C4C
P 7950 1850
F 0 "NTC5" H 8150 1850 50  0000 L CNN
F 1 "Conn_01x02" H 8250 1750 50  0000 C CNN
F 2 "111_my_footprints:B2B-XH-A(LF)(SN)" H 7950 1850 50  0001 C CNN
F 3 "~" H 7950 1850 50  0001 C CNN
	1    7950 1850
	-1   0    0    -1  
$EndComp
Text Label 8600 1850 2    50   ~ 0
GND_PLATE
Wire Wire Line
	8150 1950 8750 1950
Wire Wire Line
	8150 1850 8650 1850
$Comp
L Connector_Generic:Conn_01x02 NTC6
U 1 1 604E234E
P 7950 2050
F 0 "NTC6" H 8150 2050 50  0000 L CNN
F 1 "Conn_01x02" H 8250 1950 50  0000 C CNN
F 2 "111_my_footprints:B2B-XH-A(LF)(SN)" H 7950 2050 50  0001 C CNN
F 3 "~" H 7950 2050 50  0001 C CNN
	1    7950 2050
	-1   0    0    -1  
$EndComp
Text Label 8600 2050 2    50   ~ 0
GND_PLATE
Wire Wire Line
	8150 2150 8750 2150
Wire Wire Line
	8150 2050 8650 2050
$Comp
L Connector_Generic:Conn_01x02 NTC7
U 1 1 604F1CB3
P 7950 2250
F 0 "NTC7" H 8150 2250 50  0000 L CNN
F 1 "Conn_01x02" H 8250 2150 50  0000 C CNN
F 2 "111_my_footprints:B2B-XH-A(LF)(SN)" H 7950 2250 50  0001 C CNN
F 3 "~" H 7950 2250 50  0001 C CNN
	1    7950 2250
	-1   0    0    -1  
$EndComp
Text Label 8600 2250 2    50   ~ 0
GND_PLATE
Wire Wire Line
	8150 2350 8750 2350
Wire Wire Line
	8150 2250 8650 2250
$Comp
L Connector_Generic:Conn_01x02 NTC8
U 1 1 604FB583
P 7950 2450
F 0 "NTC8" H 8150 2450 50  0000 L CNN
F 1 "Conn_01x02" H 8250 2350 50  0000 C CNN
F 2 "111_my_footprints:B2B-XH-A(LF)(SN)" H 7950 2450 50  0001 C CNN
F 3 "~" H 7950 2450 50  0001 C CNN
	1    7950 2450
	-1   0    0    -1  
$EndComp
Text Label 8600 2450 2    50   ~ 0
GND_PLATE
Wire Wire Line
	8150 2550 8750 2550
Wire Wire Line
	8150 2450 8650 2450
$Comp
L Connector_Generic:Conn_01x02 NTC9
U 1 1 6050509E
P 7950 2650
F 0 "NTC9" H 8150 2650 50  0000 L CNN
F 1 "Conn_01x02" H 8250 2550 50  0000 C CNN
F 2 "111_my_footprints:B2B-XH-A(LF)(SN)" H 7950 2650 50  0001 C CNN
F 3 "~" H 7950 2650 50  0001 C CNN
	1    7950 2650
	-1   0    0    -1  
$EndComp
Text Label 8600 2650 2    50   ~ 0
GND_PLATE
Wire Wire Line
	8150 2750 8750 2750
Wire Wire Line
	8150 2650 8650 2650
$Comp
L Connector_Generic:Conn_01x02 NTC10
U 1 1 6050EDF8
P 7950 2850
F 0 "NTC10" H 8150 2850 50  0000 L CNN
F 1 "Conn_01x02" H 8250 2750 50  0000 C CNN
F 2 "111_my_footprints:B2B-XH-A(LF)(SN)" H 7950 2850 50  0001 C CNN
F 3 "~" H 7950 2850 50  0001 C CNN
	1    7950 2850
	-1   0    0    -1  
$EndComp
Text Label 8600 2850 2    50   ~ 0
GND_PLATE
Wire Wire Line
	8150 2950 8750 2950
Wire Wire Line
	8150 2850 8650 2850
Wire Wire Line
	6200 3000 6000 3000
Text Label 6000 3000 0    50   ~ 0
24V
$Comp
L Device:C_Small C1
U 1 1 6063F46F
P 1100 1400
F 0 "C1" H 1008 1354 50  0000 R CNN
F 1 "0.1µf" H 1008 1445 50  0000 R CNN
F 2 "Capacitor_SMD:C_0805_2012Metric_Pad1.18x1.45mm_HandSolder" H 1100 1400 50  0001 C CNN
F 3 "~" H 1100 1400 50  0001 C CNN
	1    1100 1400
	1    0    0    1   
$EndComp
$Comp
L power:GND #PWR01
U 1 1 6063F475
P 1100 1500
F 0 "#PWR01" H 1100 1250 50  0001 C CNN
F 1 "GND" H 1100 1350 50  0000 C CNN
F 2 "" H 1100 1500 50  0000 C CNN
F 3 "" H 1100 1500 50  0000 C CNN
	1    1100 1500
	1    0    0    -1  
$EndComp
Wire Wire Line
	1500 1300 1500 1700
Wire Wire Line
	1500 1700 1500 2100
Connection ~ 1500 1700
Connection ~ 1100 1300
Wire Wire Line
	1100 1300 1000 1300
Connection ~ 1500 1300
$Comp
L Device:C_Small C2
U 1 1 607BF3E9
P 1100 1800
F 0 "C2" H 1008 1754 50  0000 R CNN
F 1 "0.1µf" H 1008 1845 50  0000 R CNN
F 2 "Capacitor_SMD:C_0805_2012Metric_Pad1.18x1.45mm_HandSolder" H 1100 1800 50  0001 C CNN
F 3 "~" H 1100 1800 50  0001 C CNN
	1    1100 1800
	1    0    0    1   
$EndComp
$Comp
L power:GND #PWR02
U 1 1 607BF3EF
P 1100 1900
F 0 "#PWR02" H 1100 1650 50  0001 C CNN
F 1 "GND" H 1100 1750 50  0000 C CNN
F 2 "" H 1100 1900 50  0000 C CNN
F 3 "" H 1100 1900 50  0000 C CNN
	1    1100 1900
	1    0    0    -1  
$EndComp
$Comp
L Device:R R3
U 1 1 607D5B0C
P 1350 2100
F 0 "R3" V 1143 2100 50  0000 C CNN
F 1 "R" V 1234 2100 50  0000 C CNN
F 2 "111_my_footprints:R_Axial_DIN0207_L6.3mm_D2.5mm_P10.16mm_Horizontal" V 1280 2100 50  0001 C CNN
F 3 "~" H 1350 2100 50  0001 C CNN
	1    1350 2100
	0    -1   1    0   
$EndComp
Wire Wire Line
	1200 2100 1100 2100
Text Label 1000 2100 2    50   ~ 0
NTC3
$Comp
L Device:C_Small C3
U 1 1 607D5B14
P 1100 2200
F 0 "C3" H 1008 2154 50  0000 R CNN
F 1 "0.1µf" H 1008 2245 50  0000 R CNN
F 2 "Capacitor_SMD:C_0805_2012Metric_Pad1.18x1.45mm_HandSolder" H 1100 2200 50  0001 C CNN
F 3 "~" H 1100 2200 50  0001 C CNN
	1    1100 2200
	1    0    0    1   
$EndComp
$Comp
L power:GND #PWR03
U 1 1 607D5B1A
P 1100 2300
F 0 "#PWR03" H 1100 2050 50  0001 C CNN
F 1 "GND" H 1100 2150 50  0000 C CNN
F 2 "" H 1100 2300 50  0000 C CNN
F 3 "" H 1100 2300 50  0000 C CNN
	1    1100 2300
	1    0    0    -1  
$EndComp
Wire Wire Line
	1500 2100 1500 2500
$Comp
L Device:R R4
U 1 1 6085E815
P 1350 2500
F 0 "R4" V 1143 2500 50  0000 C CNN
F 1 "R" V 1234 2500 50  0000 C CNN
F 2 "111_my_footprints:R_Axial_DIN0207_L6.3mm_D2.5mm_P10.16mm_Horizontal" V 1280 2500 50  0001 C CNN
F 3 "~" H 1350 2500 50  0001 C CNN
	1    1350 2500
	0    -1   1    0   
$EndComp
Wire Wire Line
	1200 2500 1100 2500
Text Label 1000 2500 2    50   ~ 0
NTC4
$Comp
L Device:C_Small C4
U 1 1 6085E81D
P 1100 2600
F 0 "C4" H 1008 2554 50  0000 R CNN
F 1 "0.1µf" H 1008 2645 50  0000 R CNN
F 2 "Capacitor_SMD:C_0805_2012Metric_Pad1.18x1.45mm_HandSolder" H 1100 2600 50  0001 C CNN
F 3 "~" H 1100 2600 50  0001 C CNN
	1    1100 2600
	1    0    0    1   
$EndComp
$Comp
L power:GND #PWR04
U 1 1 6085E823
P 1100 2700
F 0 "#PWR04" H 1100 2450 50  0001 C CNN
F 1 "GND" H 1100 2550 50  0000 C CNN
F 2 "" H 1100 2700 50  0000 C CNN
F 3 "" H 1100 2700 50  0000 C CNN
	1    1100 2700
	1    0    0    -1  
$EndComp
Wire Wire Line
	1500 2500 1500 2900
$Comp
L Device:R R5
U 1 1 60870B3B
P 1350 2900
F 0 "R5" V 1143 2900 50  0000 C CNN
F 1 "R" V 1234 2900 50  0000 C CNN
F 2 "111_my_footprints:R_Axial_DIN0207_L6.3mm_D2.5mm_P10.16mm_Horizontal" V 1280 2900 50  0001 C CNN
F 3 "~" H 1350 2900 50  0001 C CNN
	1    1350 2900
	0    -1   1    0   
$EndComp
Wire Wire Line
	1200 2900 1100 2900
Text Label 1000 2900 2    50   ~ 0
NTC5
$Comp
L Device:C_Small C5
U 1 1 60870B43
P 1100 3000
F 0 "C5" H 1008 2954 50  0000 R CNN
F 1 "0.1µf" H 1008 3045 50  0000 R CNN
F 2 "Capacitor_SMD:C_0805_2012Metric_Pad1.18x1.45mm_HandSolder" H 1100 3000 50  0001 C CNN
F 3 "~" H 1100 3000 50  0001 C CNN
	1    1100 3000
	1    0    0    1   
$EndComp
$Comp
L power:GND #PWR05
U 1 1 60870B49
P 1100 3100
F 0 "#PWR05" H 1100 2850 50  0001 C CNN
F 1 "GND" H 1100 2950 50  0000 C CNN
F 2 "" H 1100 3100 50  0000 C CNN
F 3 "" H 1100 3100 50  0000 C CNN
	1    1100 3100
	1    0    0    -1  
$EndComp
Wire Wire Line
	1500 2900 1500 3300
$Comp
L Device:R R6
U 1 1 60883410
P 1350 3300
F 0 "R6" V 1143 3300 50  0000 C CNN
F 1 "R" V 1234 3300 50  0000 C CNN
F 2 "111_my_footprints:R_Axial_DIN0207_L6.3mm_D2.5mm_P10.16mm_Horizontal" V 1280 3300 50  0001 C CNN
F 3 "~" H 1350 3300 50  0001 C CNN
	1    1350 3300
	0    -1   1    0   
$EndComp
Wire Wire Line
	1200 3300 1100 3300
Text Label 1000 3300 2    50   ~ 0
NTC6
$Comp
L Device:C_Small C6
U 1 1 60883418
P 1100 3400
F 0 "C6" H 1008 3354 50  0000 R CNN
F 1 "0.1µf" H 1008 3445 50  0000 R CNN
F 2 "Capacitor_SMD:C_0805_2012Metric_Pad1.18x1.45mm_HandSolder" H 1100 3400 50  0001 C CNN
F 3 "~" H 1100 3400 50  0001 C CNN
	1    1100 3400
	1    0    0    1   
$EndComp
$Comp
L power:GND #PWR06
U 1 1 6088341E
P 1100 3500
F 0 "#PWR06" H 1100 3250 50  0001 C CNN
F 1 "GND" H 1100 3350 50  0000 C CNN
F 2 "" H 1100 3500 50  0000 C CNN
F 3 "" H 1100 3500 50  0000 C CNN
	1    1100 3500
	1    0    0    -1  
$EndComp
Wire Wire Line
	1500 3300 1500 3700
$Comp
L Device:R R7
U 1 1 608975DA
P 1350 3700
F 0 "R7" V 1143 3700 50  0000 C CNN
F 1 "R" V 1234 3700 50  0000 C CNN
F 2 "111_my_footprints:R_Axial_DIN0207_L6.3mm_D2.5mm_P10.16mm_Horizontal" V 1280 3700 50  0001 C CNN
F 3 "~" H 1350 3700 50  0001 C CNN
	1    1350 3700
	0    -1   1    0   
$EndComp
Wire Wire Line
	1200 3700 1100 3700
Text Label 1000 3700 2    50   ~ 0
NTC7
$Comp
L Device:C_Small C7
U 1 1 608975E2
P 1100 3800
F 0 "C7" H 1008 3754 50  0000 R CNN
F 1 "0.1µf" H 1008 3845 50  0000 R CNN
F 2 "Capacitor_SMD:C_0805_2012Metric_Pad1.18x1.45mm_HandSolder" H 1100 3800 50  0001 C CNN
F 3 "~" H 1100 3800 50  0001 C CNN
	1    1100 3800
	1    0    0    1   
$EndComp
$Comp
L power:GND #PWR07
U 1 1 608975E8
P 1100 3900
F 0 "#PWR07" H 1100 3650 50  0001 C CNN
F 1 "GND" H 1100 3750 50  0000 C CNN
F 2 "" H 1100 3900 50  0000 C CNN
F 3 "" H 1100 3900 50  0000 C CNN
	1    1100 3900
	1    0    0    -1  
$EndComp
Wire Wire Line
	1500 3700 1500 4100
$Comp
L Device:R R8
U 1 1 608AA015
P 1350 4100
F 0 "R8" V 1143 4100 50  0000 C CNN
F 1 "R" V 1234 4100 50  0000 C CNN
F 2 "111_my_footprints:R_Axial_DIN0207_L6.3mm_D2.5mm_P10.16mm_Horizontal" V 1280 4100 50  0001 C CNN
F 3 "~" H 1350 4100 50  0001 C CNN
	1    1350 4100
	0    -1   1    0   
$EndComp
Wire Wire Line
	1200 4100 1100 4100
Text Label 1000 4100 2    50   ~ 0
NTC8
$Comp
L Device:C_Small C8
U 1 1 608AA01D
P 1100 4200
F 0 "C8" H 1008 4154 50  0000 R CNN
F 1 "0.1µf" H 1008 4245 50  0000 R CNN
F 2 "Capacitor_SMD:C_0805_2012Metric_Pad1.18x1.45mm_HandSolder" H 1100 4200 50  0001 C CNN
F 3 "~" H 1100 4200 50  0001 C CNN
	1    1100 4200
	1    0    0    1   
$EndComp
$Comp
L power:GND #PWR08
U 1 1 608AA023
P 1100 4300
F 0 "#PWR08" H 1100 4050 50  0001 C CNN
F 1 "GND" H 1100 4150 50  0000 C CNN
F 2 "" H 1100 4300 50  0000 C CNN
F 3 "" H 1100 4300 50  0000 C CNN
	1    1100 4300
	1    0    0    -1  
$EndComp
Wire Wire Line
	1500 4100 1500 4500
$Comp
L Device:R R9
U 1 1 608BD38B
P 1350 4500
F 0 "R9" V 1143 4500 50  0000 C CNN
F 1 "R" V 1234 4500 50  0000 C CNN
F 2 "111_my_footprints:R_Axial_DIN0207_L6.3mm_D2.5mm_P10.16mm_Horizontal" V 1280 4500 50  0001 C CNN
F 3 "~" H 1350 4500 50  0001 C CNN
	1    1350 4500
	0    -1   1    0   
$EndComp
Wire Wire Line
	1200 4500 1100 4500
Text Label 1000 4500 2    50   ~ 0
NTC9
$Comp
L Device:C_Small C9
U 1 1 608BD393
P 1100 4600
F 0 "C9" H 1008 4554 50  0000 R CNN
F 1 "0.1µf" H 1008 4645 50  0000 R CNN
F 2 "Capacitor_SMD:C_0805_2012Metric_Pad1.18x1.45mm_HandSolder" H 1100 4600 50  0001 C CNN
F 3 "~" H 1100 4600 50  0001 C CNN
	1    1100 4600
	1    0    0    1   
$EndComp
$Comp
L power:GND #PWR09
U 1 1 608BD399
P 1100 4700
F 0 "#PWR09" H 1100 4450 50  0001 C CNN
F 1 "GND" H 1100 4550 50  0000 C CNN
F 2 "" H 1100 4700 50  0000 C CNN
F 3 "" H 1100 4700 50  0000 C CNN
	1    1100 4700
	1    0    0    -1  
$EndComp
Wire Wire Line
	1500 4500 1500 4900
Connection ~ 1500 1100
Connection ~ 1500 2100
Connection ~ 1500 2500
Connection ~ 1500 2900
Connection ~ 1500 3300
Connection ~ 1500 3700
Connection ~ 1500 4100
Connection ~ 1500 4500
Connection ~ 1100 1700
Wire Wire Line
	1100 1700 1000 1700
Connection ~ 1100 2100
Wire Wire Line
	1100 2100 1000 2100
Connection ~ 1100 2500
Wire Wire Line
	1100 2500 1000 2500
Connection ~ 1100 2900
Wire Wire Line
	1100 2900 1000 2900
Connection ~ 1100 3300
Wire Wire Line
	1100 3300 1000 3300
Connection ~ 1100 3700
Wire Wire Line
	1100 3700 1000 3700
Connection ~ 1100 4100
Wire Wire Line
	1100 4100 1000 4100
Connection ~ 1100 4500
Wire Wire Line
	1100 4500 1000 4500
$Comp
L Device:R R10
U 1 1 60922798
P 1350 4900
F 0 "R10" V 1143 4900 50  0000 C CNN
F 1 "R" V 1234 4900 50  0000 C CNN
F 2 "111_my_footprints:R_Axial_DIN0207_L6.3mm_D2.5mm_P10.16mm_Horizontal" V 1280 4900 50  0001 C CNN
F 3 "~" H 1350 4900 50  0001 C CNN
	1    1350 4900
	0    -1   1    0   
$EndComp
Wire Wire Line
	1200 4900 1100 4900
Text Label 1000 4900 2    50   ~ 0
NTC10
$Comp
L Device:C_Small C10
U 1 1 609227A0
P 1100 5000
F 0 "C10" H 1008 4954 50  0000 R CNN
F 1 "0.1µf" H 1008 5045 50  0000 R CNN
F 2 "Capacitor_SMD:C_0805_2012Metric_Pad1.18x1.45mm_HandSolder" H 1100 5000 50  0001 C CNN
F 3 "~" H 1100 5000 50  0001 C CNN
	1    1100 5000
	1    0    0    1   
$EndComp
$Comp
L power:GND #PWR010
U 1 1 609227A6
P 1100 5100
F 0 "#PWR010" H 1100 4850 50  0001 C CNN
F 1 "GND" H 1100 4950 50  0000 C CNN
F 2 "" H 1100 5100 50  0000 C CNN
F 3 "" H 1100 5100 50  0000 C CNN
	1    1100 5100
	1    0    0    -1  
$EndComp
Connection ~ 1100 4900
Wire Wire Line
	1100 4900 1000 4900
$Comp
L power:GND #PWR030
U 1 1 609FFCA5
P 8750 3150
F 0 "#PWR030" H 8750 2900 50  0001 C CNN
F 1 "GND" H 8750 3000 50  0000 C CNN
F 2 "" H 8750 3150 50  0000 C CNN
F 3 "" H 8750 3150 50  0000 C CNN
	1    8750 3150
	0    1    -1   0   
$EndComp
$Comp
L power:GND #PWR031
U 1 1 60A13FCE
P 8750 3350
F 0 "#PWR031" H 8750 3100 50  0001 C CNN
F 1 "GND" H 8750 3200 50  0000 C CNN
F 2 "" H 8750 3350 50  0000 C CNN
F 3 "" H 8750 3350 50  0000 C CNN
	1    8750 3350
	0    1    -1   0   
$EndComp
$Comp
L power:GND #PWR045
U 1 1 60A64E03
P 11400 4850
F 0 "#PWR045" H 11400 4600 50  0001 C CNN
F 1 "GND" H 11400 4700 50  0000 C CNN
F 2 "" H 11400 4850 50  0000 C CNN
F 3 "" H 11400 4850 50  0000 C CNN
	1    11400 4850
	-1   0    0    -1  
$EndComp
$Comp
L power:GND #PWR038
U 1 1 60A91FB0
P 11100 3050
F 0 "#PWR038" H 11100 2800 50  0001 C CNN
F 1 "GND" H 11100 2900 50  0000 C CNN
F 2 "" H 11100 3050 50  0000 C CNN
F 3 "" H 11100 3050 50  0000 C CNN
	1    11100 3050
	0    1    -1   0   
$EndComp
$Comp
L power:GND #PWR039
U 1 1 60AA6C1C
P 11100 3250
F 0 "#PWR039" H 11100 3000 50  0001 C CNN
F 1 "GND" H 11100 3100 50  0000 C CNN
F 2 "" H 11100 3250 50  0000 C CNN
F 3 "" H 11100 3250 50  0000 C CNN
	1    11100 3250
	0    1    -1   0   
$EndComp
$Comp
L Connector_Generic:Conn_01x18 J9
U 1 1 60AEAE00
P 10000 2850
F 0 "J9" V 10125 2796 50  0000 C CNN
F 1 "Conn_01x18" V 10216 2796 50  0000 C CNN
F 2 "111_my_footprints:PinSocket_1x18_P2.54mm_Vertical" H 10000 2850 50  0001 C CNN
F 3 "~" H 10000 2850 50  0001 C CNN
	1    10000 2850
	1    0    0    -1  
$EndComp
Wire Wire Line
	9800 2950 9250 2950
Wire Wire Line
	9250 2950 9250 3050
Wire Wire Line
	9250 3050 8750 3050
Wire Wire Line
	8750 3250 9300 3250
Wire Wire Line
	9300 3250 9300 3050
Wire Wire Line
	9300 3050 9800 3050
Wire Wire Line
	9800 3150 9350 3150
Wire Wire Line
	9350 3150 9350 3450
Wire Wire Line
	9350 3450 8750 3450
Wire Wire Line
	8750 3650 9400 3650
Wire Wire Line
	9400 3650 9400 3250
Wire Wire Line
	9400 3250 9800 3250
Wire Wire Line
	9800 3350 9450 3350
Wire Wire Line
	9450 3350 9450 3850
Wire Wire Line
	9450 3850 8750 3850
Wire Wire Line
	8750 4050 9500 4050
Wire Wire Line
	9500 4050 9500 3450
Wire Wire Line
	9500 3450 9800 3450
Wire Wire Line
	9800 3550 9550 3550
Wire Wire Line
	9550 3550 9550 4250
Wire Wire Line
	9550 4250 8750 4250
Wire Wire Line
	8750 4450 9600 4450
Wire Wire Line
	9600 4450 9600 3650
Wire Wire Line
	9600 3650 9800 3650
Wire Wire Line
	9800 3750 9650 3750
Wire Wire Line
	9650 3750 9650 4650
Wire Wire Line
	9650 4650 8750 4650
Wire Wire Line
	9800 2850 8750 2850
Wire Wire Line
	9800 2750 9250 2750
Wire Wire Line
	9250 2750 9250 2650
Wire Wire Line
	9250 2650 8750 2650
Wire Wire Line
	8750 2450 9300 2450
Wire Wire Line
	9300 2450 9300 2650
Wire Wire Line
	9300 2650 9800 2650
Wire Wire Line
	9800 2550 9350 2550
Wire Wire Line
	9350 2550 9350 2250
Wire Wire Line
	9350 2250 8750 2250
Wire Wire Line
	8750 2050 9400 2050
Wire Wire Line
	9400 2050 9400 2450
Wire Wire Line
	9400 2450 9800 2450
Wire Wire Line
	9800 2350 9450 2350
Wire Wire Line
	9450 1850 8750 1850
Wire Wire Line
	9450 2350 9450 1850
Wire Wire Line
	8750 1650 9500 1650
Wire Wire Line
	9500 1650 9500 2250
Wire Wire Line
	9500 2250 9800 2250
Wire Wire Line
	9800 2150 9550 2150
Wire Wire Line
	9550 2150 9550 1450
Wire Wire Line
	9550 1450 8750 1450
Wire Wire Line
	8750 1250 9600 1250
Wire Wire Line
	9600 1250 9600 2050
Wire Wire Line
	9600 2050 9800 2050
Text Label 2300 3350 0    50   ~ 0
BYPASS_ON
Connection ~ 1900 1100
Wire Wire Line
	2400 1100 1900 1100
Wire Wire Line
	1500 1100 1900 1100
Wire Wire Line
	1900 1400 2150 1400
$Comp
L Device:CP C11
U 1 1 603CBBDB
P 1900 1250
F 0 "C11" H 2018 1296 50  0000 L CNN
F 1 "10µf" H 2018 1205 50  0000 L CNN
F 2 "Capacitor_THT:CP_Radial_D5.0mm_P2.00mm" H 1938 1100 50  0001 C CNN
F 3 "~" H 1900 1250 50  0001 C CNN
	1    1900 1250
	-1   0    0    -1  
$EndComp
$Comp
L phoenix:1757475 J2
U 1 1 60793EA2
P 3850 2850
F 0 "J2" H 4378 2853 60  0000 L CNN
F 1 "1757475" H 4378 2747 60  0000 L CNN
F 2 "111_my_footprints:CPM_5p08" H 4250 2790 60  0001 C CNN
F 3 "" H 3850 2850 60  0000 C CNN
	1    3850 2850
	1    0    0    1   
$EndComp
$Comp
L phoenix:1757475 J1
U 1 1 607E7EC9
P 3850 1950
F 0 "J1" H 4378 1953 60  0000 L CNN
F 1 "1757475" H 4378 1847 60  0000 L CNN
F 2 "111_my_footprints:CPM_5p08" H 4250 1890 60  0001 C CNN
F 3 "" H 3850 1950 60  0000 C CNN
	1    3850 1950
	1    0    0    -1  
$EndComp
Text Label 10600 4050 0    50   ~ 0
GPIO3(SCL1)
Text Label 10600 4250 0    50   ~ 0
GPIO2(SDA1)
Text Label 8250 4150 0    50   ~ 0
GPIO3(SCL1)
Text Label 8250 4350 0    50   ~ 0
GPIO2(SDA1)
Wire Wire Line
	8250 4150 8750 4150
Wire Wire Line
	8250 4350 8750 4350
$Comp
L power:GND #PWR032
U 1 1 607A0C7B
P 8750 3550
F 0 "#PWR032" H 8750 3300 50  0001 C CNN
F 1 "GND" H 8750 3400 50  0000 C CNN
F 2 "" H 8750 3550 50  0000 C CNN
F 3 "" H 8750 3550 50  0000 C CNN
	1    8750 3550
	0    1    -1   0   
$EndComp
$Comp
L power:GND #PWR033
U 1 1 607A0C81
P 8750 3750
F 0 "#PWR033" H 8750 3500 50  0001 C CNN
F 1 "GND" H 8750 3600 50  0000 C CNN
F 2 "" H 8750 3750 50  0000 C CNN
F 3 "" H 8750 3750 50  0000 C CNN
	1    8750 3750
	0    1    -1   0   
$EndComp
$Comp
L power:GND #PWR034
U 1 1 607B6075
P 8750 3950
F 0 "#PWR034" H 8750 3700 50  0001 C CNN
F 1 "GND" H 8750 3800 50  0000 C CNN
F 2 "" H 8750 3950 50  0000 C CNN
F 3 "" H 8750 3950 50  0000 C CNN
	1    8750 3950
	0    1    -1   0   
$EndComp
$Comp
L power:GND #PWR042
U 1 1 608242CB
P 11100 3850
F 0 "#PWR042" H 11100 3600 50  0001 C CNN
F 1 "GND" H 11100 3700 50  0000 C CNN
F 2 "" H 11100 3850 50  0000 C CNN
F 3 "" H 11100 3850 50  0000 C CNN
	1    11100 3850
	0    1    1    0   
$EndComp
$Comp
L power:GND #PWR041
U 1 1 608242D1
P 11100 3650
F 0 "#PWR041" H 11100 3400 50  0001 C CNN
F 1 "GND" H 11100 3500 50  0000 C CNN
F 2 "" H 11100 3650 50  0000 C CNN
F 3 "" H 11100 3650 50  0000 C CNN
	1    11100 3650
	0    1    1    0   
$EndComp
$Comp
L power:GND #PWR040
U 1 1 608242D7
P 11100 3450
F 0 "#PWR040" H 11100 3200 50  0001 C CNN
F 1 "GND" H 11100 3300 50  0000 C CNN
F 2 "" H 11100 3450 50  0000 C CNN
F 3 "" H 11100 3450 50  0000 C CNN
	1    11100 3450
	0    1    1    0   
$EndComp
$Comp
L power:GND #PWR011
U 1 1 608959DA
P 2150 1400
F 0 "#PWR011" H 2150 1150 50  0001 C CNN
F 1 "GND" H 2150 1250 50  0000 C CNN
F 2 "" H 2150 1400 50  0000 C CNN
F 3 "" H 2150 1400 50  0000 C CNN
	1    2150 1400
	1    0    0    -1  
$EndComp
Connection ~ 2150 1400
Wire Wire Line
	2150 1400 2400 1400
Wire Wire Line
	10750 1050 11100 1050
Wire Wire Line
	10750 1250 11100 1250
Wire Wire Line
	10750 1450 11100 1450
Wire Wire Line
	10750 1650 11100 1650
Wire Wire Line
	10750 1850 11100 1850
Wire Wire Line
	10750 2050 11100 2050
Wire Wire Line
	10750 2250 11100 2250
Wire Wire Line
	10750 2450 11100 2450
Wire Wire Line
	10750 2650 11100 2650
Wire Wire Line
	10750 2850 11100 2850
Wire Wire Line
	10600 4050 11100 4050
Wire Wire Line
	10600 4250 11100 4250
Wire Wire Line
	10650 4650 11100 4650
Wire Wire Line
	10650 4450 11100 4450
$Comp
L Connector:DB37_Female_MountingHoles J10
U 1 1 6076E0E0
P 11400 2850
F 0 "J10" H 11580 2852 50  0000 L CNN
F 1 "DB37_Female_MountingHoles" H 11580 2761 50  0000 L CNN
F 2 "111_my_footprints:DSUB-37_Female_Horizontal_P2.77x2.84mm_EdgePinOffset7.70mm_Housed_MountingHolesOffset9.12mm" H 11400 2850 50  0001 C CNN
F 3 "" H 11400 2850 50  0001 C CNN
	1    11400 2850
	1    0    0    -1  
$EndComp
$Comp
L Connector:DB37_Male_MountingHoles J8
U 1 1 60779E80
P 9050 2950
F 0 "J8" V 9367 2918 50  0000 C CNN
F 1 "DB37_Male_MountingHoles" V 9276 2918 50  0000 C CNN
F 2 "111_my_footprints:DSUB-37_Male_Vertical_P2.77x2.84mm_MountingHoles" H 9050 2950 50  0001 C CNN
F 3 "" H 9050 2950 50  0001 C CNN
	1    9050 2950
	1    0    0    1   
$EndComp
Text Label 6750 4000 2    50   ~ 0
GND_PLATE
Wire Wire Line
	6750 4000 6300 4000
Text Label 5250 4000 0    50   ~ 0
5p1V
Text Label 6800 3900 2    50   ~ 0
GPIO2(SDA1)
$Comp
L 111_my_symbols:HYT_939p HYT_1
U 1 1 607DCC3B
P 5700 3900
F 0 "HYT_1" H 6000 4125 50  0000 C CNN
F 1 "HYT_939p" H 6000 4034 50  0000 C CNN
F 2 "111_my_footprints:HYT_939p" H 5900 3850 50  0001 C CNN
F 3 "" H 5900 3850 50  0001 C CNN
	1    5700 3900
	1    0    0    -1  
$EndComp
Text Label 5200 3900 0    50   ~ 0
GPIO3(SCL1)
Text Label 13000 5100 0    50   ~ 0
GND_PLATE
Wire Wire Line
	13000 5100 13450 5100
Text Label 12950 5300 0    50   ~ 0
GPIO2(SDA1)
Wire Wire Line
	12950 5300 13450 5300
Wire Wire Line
	12950 5400 13450 5400
Text Label 12950 5400 0    50   ~ 0
GPIO3(SCL1)
Text Label 13000 5200 0    50   ~ 0
5p1V
Wire Wire Line
	13000 5200 13450 5200
$Comp
L Connector_Generic:Conn_01x04 J20
U 1 1 60B974CC
P 13650 5200
F 0 "J20" H 13730 5192 50  0000 L CNN
F 1 "Conn_01x04" H 13730 5101 50  0000 L CNN
F 2 "111_my_footprints:grove_4pin_horizontal" H 13650 5200 50  0001 C CNN
F 3 "~" H 13650 5200 50  0001 C CNN
	1    13650 5200
	1    0    0    -1  
$EndComp
Text Label 13000 4650 0    50   ~ 0
GND_PLATE
Wire Wire Line
	13000 4650 13450 4650
Text Label 12950 4850 0    50   ~ 0
GPIO2(SDA1)
Wire Wire Line
	12950 4850 13450 4850
Wire Wire Line
	12950 4950 13450 4950
Text Label 12950 4950 0    50   ~ 0
GPIO3(SCL1)
Text Label 13000 4750 0    50   ~ 0
5p1V
Wire Wire Line
	13000 4750 13450 4750
$Comp
L Connector_Generic:Conn_01x04 J19
U 1 1 60C1859D
P 13650 4750
F 0 "J19" H 13730 4742 50  0000 L CNN
F 1 "Conn_01x04" H 13730 4651 50  0000 L CNN
F 2 "111_my_footprints:grove_4pin_horizontal" H 13650 4750 50  0001 C CNN
F 3 "~" H 13650 4750 50  0001 C CNN
	1    13650 4750
	1    0    0    -1  
$EndComp
Text Label 13000 4200 0    50   ~ 0
GND_PLATE
Wire Wire Line
	13000 4200 13450 4200
Text Label 12950 4400 0    50   ~ 0
GPIO2(SDA1)
Wire Wire Line
	12950 4400 13450 4400
Wire Wire Line
	12950 4500 13450 4500
Text Label 12950 4500 0    50   ~ 0
GPIO3(SCL1)
Text Label 13000 4300 0    50   ~ 0
5p1V
Wire Wire Line
	13000 4300 13450 4300
$Comp
L Connector_Generic:Conn_01x04 J18
U 1 1 60C2F08B
P 13650 4300
F 0 "J18" H 13730 4292 50  0000 L CNN
F 1 "Conn_01x04" H 13730 4201 50  0000 L CNN
F 2 "111_my_footprints:grove_4pin_horizontal" H 13650 4300 50  0001 C CNN
F 3 "~" H 13650 4300 50  0001 C CNN
	1    13650 4300
	1    0    0    -1  
$EndComp
Text Label 13000 3750 0    50   ~ 0
GND_PLATE
Wire Wire Line
	13000 3750 13450 3750
Text Label 12950 3950 0    50   ~ 0
GPIO2(SDA1)
Wire Wire Line
	12950 3950 13450 3950
Wire Wire Line
	12950 4050 13450 4050
Text Label 12950 4050 0    50   ~ 0
GPIO3(SCL1)
Text Label 13000 3850 0    50   ~ 0
5p1V
Wire Wire Line
	13000 3850 13450 3850
$Comp
L Connector_Generic:Conn_01x04 J17
U 1 1 60C4815F
P 13650 3850
F 0 "J17" H 13730 3842 50  0000 L CNN
F 1 "Conn_01x04" H 13730 3751 50  0000 L CNN
F 2 "111_my_footprints:grove_4pin_horizontal" H 13650 3850 50  0001 C CNN
F 3 "~" H 13650 3850 50  0001 C CNN
	1    13650 3850
	1    0    0    -1  
$EndComp
Text Label 13000 3300 0    50   ~ 0
GND_PLATE
Wire Wire Line
	13000 3300 13450 3300
Text Label 12950 3500 0    50   ~ 0
GPIO2(SDA1)
Wire Wire Line
	12950 3500 13450 3500
Wire Wire Line
	12950 3600 13450 3600
Text Label 12950 3600 0    50   ~ 0
GPIO3(SCL1)
Text Label 13000 3400 0    50   ~ 0
5p1V
Wire Wire Line
	13000 3400 13450 3400
$Comp
L Connector_Generic:Conn_01x04 J16
U 1 1 60C4816D
P 13650 3400
F 0 "J16" H 13730 3392 50  0000 L CNN
F 1 "Conn_01x04" H 13730 3301 50  0000 L CNN
F 2 "111_my_footprints:grove_4pin_horizontal" H 13650 3400 50  0001 C CNN
F 3 "~" H 13650 3400 50  0001 C CNN
	1    13650 3400
	1    0    0    -1  
$EndComp
Text Label 13000 2850 0    50   ~ 0
GND_PLATE
Wire Wire Line
	13000 2850 13450 2850
Text Label 12950 3050 0    50   ~ 0
GPIO2(SDA1)
Wire Wire Line
	12950 3050 13450 3050
Wire Wire Line
	12950 3150 13450 3150
Text Label 12950 3150 0    50   ~ 0
GPIO3(SCL1)
Text Label 13000 2950 0    50   ~ 0
5p1V
Wire Wire Line
	13000 2950 13450 2950
$Comp
L Connector_Generic:Conn_01x04 J15
U 1 1 60C4817B
P 13650 2950
F 0 "J15" H 13730 2942 50  0000 L CNN
F 1 "Conn_01x04" H 13730 2851 50  0000 L CNN
F 2 "111_my_footprints:grove_4pin_vertical" H 13650 2950 50  0001 C CNN
F 3 "~" H 13650 2950 50  0001 C CNN
	1    13650 2950
	1    0    0    -1  
$EndComp
Text Label 13000 2400 0    50   ~ 0
GND_PLATE
Wire Wire Line
	13000 2400 13450 2400
Text Label 12950 2600 0    50   ~ 0
GPIO2(SDA1)
Wire Wire Line
	12950 2600 13450 2600
Wire Wire Line
	12950 2700 13450 2700
Text Label 12950 2700 0    50   ~ 0
GPIO3(SCL1)
Text Label 13000 2500 0    50   ~ 0
5p1V
Wire Wire Line
	13000 2500 13450 2500
$Comp
L Connector_Generic:Conn_01x04 J14
U 1 1 60C68A40
P 13650 2500
F 0 "J14" H 13730 2492 50  0000 L CNN
F 1 "Conn_01x04" H 13730 2401 50  0000 L CNN
F 2 "111_my_footprints:grove_4pin_vertical" H 13650 2500 50  0001 C CNN
F 3 "~" H 13650 2500 50  0001 C CNN
	1    13650 2500
	1    0    0    -1  
$EndComp
Text Label 13000 1950 0    50   ~ 0
GND_PLATE
Wire Wire Line
	13000 1950 13450 1950
Text Label 12950 2150 0    50   ~ 0
GPIO2(SDA1)
Wire Wire Line
	12950 2150 13450 2150
Wire Wire Line
	12950 2250 13450 2250
Text Label 12950 2250 0    50   ~ 0
GPIO3(SCL1)
Text Label 13000 2050 0    50   ~ 0
5p1V
Wire Wire Line
	13000 2050 13450 2050
$Comp
L Connector_Generic:Conn_01x04 J13
U 1 1 60C68A4E
P 13650 2050
F 0 "J13" H 13730 2042 50  0000 L CNN
F 1 "Conn_01x04" H 13730 1951 50  0000 L CNN
F 2 "111_my_footprints:grove_4pin_vertical" H 13650 2050 50  0001 C CNN
F 3 "~" H 13650 2050 50  0001 C CNN
	1    13650 2050
	1    0    0    -1  
$EndComp
Text Label 13000 1500 0    50   ~ 0
GND_PLATE
Wire Wire Line
	13000 1500 13450 1500
Text Label 12950 1700 0    50   ~ 0
GPIO2(SDA1)
Wire Wire Line
	12950 1700 13450 1700
Wire Wire Line
	12950 1800 13450 1800
Text Label 12950 1800 0    50   ~ 0
GPIO3(SCL1)
Text Label 13000 1600 0    50   ~ 0
5p1V
Wire Wire Line
	13000 1600 13450 1600
$Comp
L Connector_Generic:Conn_01x04 J12
U 1 1 60C68A5C
P 13650 1600
F 0 "J12" H 13730 1592 50  0000 L CNN
F 1 "Conn_01x04" H 13730 1501 50  0000 L CNN
F 2 "111_my_footprints:grove_4pin_vertical" H 13650 1600 50  0001 C CNN
F 3 "~" H 13650 1600 50  0001 C CNN
	1    13650 1600
	1    0    0    -1  
$EndComp
Text Label 13000 1050 0    50   ~ 0
GND_PLATE
Wire Wire Line
	13000 1050 13450 1050
Text Label 12300 1250 0    50   ~ 0
GPIO2(SDA1)
Text Label 12300 1350 0    50   ~ 0
GPIO3(SCL1)
Text Label 13000 1150 0    50   ~ 0
5p1V
$Comp
L Connector_Generic:Conn_01x04 J11
U 1 1 60C68A6A
P 13650 1150
F 0 "J11" H 13730 1142 50  0000 L CNN
F 1 "Conn_01x04" H 13730 1051 50  0000 L CNN
F 2 "111_my_footprints:grove_4pin_vertical" H 13650 1150 50  0001 C CNN
F 3 "~" H 13650 1150 50  0001 C CNN
	1    13650 1150
	1    0    0    -1  
$EndComp
$Comp
L 111_my_symbols:Q_NPN_Darlington_BCE Q1
U 1 1 60B3F12A
P 3300 3350
F 0 "Q1" H 3604 3396 50  0000 L CNN
F 1 "Q_NPN_Darlington_BCE" H 3604 3305 50  0000 L CNN
F 2 "111_my_footprints:TIP112_heat" H 3500 3450 50  0001 C CNN
F 3 "~" H 3300 3350 50  0001 C CNN
	1    3300 3350
	1    0    0    -1  
$EndComp
$Comp
L power:GND #PWR036
U 1 1 60B30DBE
P 9050 950
F 0 "#PWR036" H 9050 700 50  0001 C CNN
F 1 "GND" H 9050 800 50  0000 C CNN
F 2 "" H 9050 950 50  0000 C CNN
F 3 "" H 9050 950 50  0000 C CNN
	1    9050 950 
	0    -1   1    0   
$EndComp
Text Label 4050 6150 0    50   ~ 0
POL_SW_3
Text Label 1300 6150 0    50   ~ 0
GPIO20(SPI1_MOSI)
Wire Wire Line
	800  6150 2350 6150
Text Label 800  6150 0    50   ~ 0
POL_SW_2
Text Label 800  6250 0    50   ~ 0
POL_SW_1
Wire Wire Line
	2350 6450 1300 6450
Wire Wire Line
	2250 5900 2250 6350
Wire Wire Line
	800  6250 2350 6250
Wire Wire Line
	2850 6150 4050 6150
Wire Wire Line
	2850 6250 4050 6250
Wire Wire Line
	2850 6350 4050 6350
Text Label 4050 6350 0    50   ~ 0
BYPASS_ON
$Comp
L power:GND #PWR016
U 1 1 607D01F0
P 3400 3550
F 0 "#PWR016" H 3400 3300 50  0001 C CNN
F 1 "GND" H 3400 3400 50  0000 C CNN
F 2 "" H 3400 3550 50  0000 C CNN
F 3 "" H 3400 3550 50  0000 C CNN
	1    3400 3550
	-1   0    0    -1  
$EndComp
$Comp
L power:GND #PWR017
U 1 1 607E7ECF
P 3600 2050
F 0 "#PWR017" H 3600 1800 50  0001 C CNN
F 1 "GND" H 3600 1900 50  0000 C CNN
F 2 "" H 3600 2050 50  0000 C CNN
F 3 "" H 3600 2050 50  0000 C CNN
	1    3600 2050
	0    1    -1   0   
$EndComp
Text Label 3650 1950 0    50   ~ 0
24V
$Comp
L Connector_Generic:Conn_01x04 J21
U 1 1 60F127C1
P 15350 1150
F 0 "J21" H 15430 1142 50  0000 L CNN
F 1 "Conn_01x04" H 15430 1051 50  0000 L CNN
F 2 "111_my_footprints:grove_4pin_horizontal" H 15350 1150 50  0001 C CNN
F 3 "~" H 15350 1150 50  0001 C CNN
	1    15350 1150
	1    0    0    -1  
$EndComp
Wire Wire Line
	14700 1150 15150 1150
Text Label 14700 1150 0    50   ~ 0
5p1V
Text Label 14650 1350 0    50   ~ 0
GPIO3(SCL1)
Wire Wire Line
	14650 1350 15150 1350
Wire Wire Line
	14650 1250 15150 1250
Text Label 14650 1250 0    50   ~ 0
GPIO2(SDA1)
Wire Wire Line
	14700 1050 15150 1050
Text Label 14700 1050 0    50   ~ 0
GND_PLATE
$Comp
L Connector_Generic:Conn_01x04 J22
U 1 1 60F127B3
P 15350 1600
F 0 "J22" H 15430 1592 50  0000 L CNN
F 1 "Conn_01x04" H 15430 1501 50  0000 L CNN
F 2 "111_my_footprints:grove_4pin_horizontal" H 15350 1600 50  0001 C CNN
F 3 "~" H 15350 1600 50  0001 C CNN
	1    15350 1600
	1    0    0    -1  
$EndComp
Wire Wire Line
	14700 1600 15150 1600
Text Label 14700 1600 0    50   ~ 0
5p1V
Text Label 14650 1800 0    50   ~ 0
GPIO3(SCL1)
Wire Wire Line
	14650 1800 15150 1800
Wire Wire Line
	14650 1700 15150 1700
Text Label 14650 1700 0    50   ~ 0
GPIO2(SDA1)
Wire Wire Line
	14700 1500 15150 1500
Text Label 14700 1500 0    50   ~ 0
GND_PLATE
$Comp
L Connector_Generic:Conn_01x04 J23
U 1 1 60F127A5
P 15350 2050
F 0 "J23" H 15430 2042 50  0000 L CNN
F 1 "Conn_01x04" H 15430 1951 50  0000 L CNN
F 2 "111_my_footprints:grove_4pin_horizontal" H 15350 2050 50  0001 C CNN
F 3 "~" H 15350 2050 50  0001 C CNN
	1    15350 2050
	1    0    0    -1  
$EndComp
Wire Wire Line
	14700 2050 15150 2050
Text Label 14700 2050 0    50   ~ 0
5p1V
Text Label 14650 2250 0    50   ~ 0
GPIO3(SCL1)
Wire Wire Line
	14650 2250 15150 2250
Wire Wire Line
	14650 2150 15150 2150
Text Label 14650 2150 0    50   ~ 0
GPIO2(SDA1)
Wire Wire Line
	14700 1950 15150 1950
Text Label 14700 1950 0    50   ~ 0
GND_PLATE
$Comp
L Connector_Generic:Conn_01x04 J24
U 1 1 60F12797
P 15350 2500
F 0 "J24" H 15430 2492 50  0000 L CNN
F 1 "Conn_01x04" H 15430 2401 50  0000 L CNN
F 2 "111_my_footprints:grove_4pin_horizontal" H 15350 2500 50  0001 C CNN
F 3 "~" H 15350 2500 50  0001 C CNN
	1    15350 2500
	1    0    0    -1  
$EndComp
Wire Wire Line
	14700 2500 15150 2500
Text Label 14700 2500 0    50   ~ 0
5p1V
Text Label 14650 2700 0    50   ~ 0
GPIO3(SCL1)
Wire Wire Line
	14650 2700 15150 2700
Wire Wire Line
	14650 2600 15150 2600
Text Label 14650 2600 0    50   ~ 0
GPIO2(SDA1)
Wire Wire Line
	14700 2400 15150 2400
Text Label 14700 2400 0    50   ~ 0
GND_PLATE
$Comp
L Connector_Generic:Conn_01x04 J25
U 1 1 60F12789
P 15350 2950
F 0 "J25" H 15430 2942 50  0000 L CNN
F 1 "Conn_01x04" H 15430 2851 50  0000 L CNN
F 2 "111_my_footprints:grove_4pin_horizontal" H 15350 2950 50  0001 C CNN
F 3 "~" H 15350 2950 50  0001 C CNN
	1    15350 2950
	1    0    0    -1  
$EndComp
Wire Wire Line
	14700 2950 15150 2950
Text Label 14700 2950 0    50   ~ 0
5p1V
Text Label 14650 3150 0    50   ~ 0
GPIO3(SCL1)
Wire Wire Line
	14650 3150 15150 3150
Wire Wire Line
	14650 3050 15150 3050
Text Label 14650 3050 0    50   ~ 0
GPIO2(SDA1)
Wire Wire Line
	14700 2850 15150 2850
Text Label 14700 2850 0    50   ~ 0
GND_PLATE
$Comp
L Device:R R23
U 1 1 60EBC7D6
P 12150 1250
F 0 "R23" V 11943 1250 50  0000 C CNN
F 1 "R" V 12034 1250 50  0000 C CNN
F 2 "111_my_footprints:R_Axial_DIN0207_L6.3mm_D2.5mm_P10.16mm_Horizontal" V 12080 1250 50  0001 C CNN
F 3 "~" H 12150 1250 50  0001 C CNN
	1    12150 1250
	0    -1   1    0   
$EndComp
$Comp
L Device:R R24
U 1 1 60EBC7DC
P 12150 1350
F 0 "R24" V 11943 1350 50  0000 C CNN
F 1 "R" V 12034 1350 50  0000 C CNN
F 2 "111_my_footprints:R_Axial_DIN0207_L6.3mm_D2.5mm_P10.16mm_Horizontal" V 12080 1350 50  0001 C CNN
F 3 "~" H 12150 1350 50  0001 C CNN
	1    12150 1350
	0    -1   1    0   
$EndComp
$Comp
L power:+3.3V #PWR037
U 1 1 60C9B7DC
P 9650 4650
F 0 "#PWR037" H 9650 4500 50  0001 C CNN
F 1 "+3.3V" H 9650 4790 50  0000 C CNN
F 2 "" H 9650 4650 50  0000 C CNN
F 3 "" H 9650 4650 50  0000 C CNN
	1    9650 4650
	0    1    -1   0   
$EndComp
Connection ~ 9650 4650
$Comp
L power:+3.3V #PWR044
U 1 1 60D24CA5
P 11100 4550
F 0 "#PWR044" H 11100 4400 50  0001 C CNN
F 1 "+3.3V" H 11100 4690 50  0000 C CNN
F 2 "" H 11100 4550 50  0000 C CNN
F 3 "" H 11100 4550 50  0000 C CNN
	1    11100 4550
	0    -1   -1   0   
$EndComp
Connection ~ 9600 4450
Text Label 10200 4450 2    50   ~ 0
5p1V
Wire Wire Line
	10200 4450 9600 4450
Wire Wire Line
	13450 1150 13000 1150
Wire Wire Line
	12300 1250 13450 1250
Wire Wire Line
	12300 1350 13450 1350
$Comp
L power:GND #PWR035
U 1 1 60CB8030
P 8750 4250
F 0 "#PWR035" H 8750 4000 50  0001 C CNN
F 1 "GND" H 8750 4100 50  0000 C CNN
F 2 "" H 8750 4250 50  0000 C CNN
F 3 "" H 8750 4250 50  0000 C CNN
	1    8750 4250
	0    1    -1   0   
$EndComp
Text Label 10500 4350 0    50   ~ 0
5p1V
Wire Wire Line
	10500 4350 11100 4350
$Comp
L power:GND #PWR043
U 1 1 60C97868
P 11100 4150
F 0 "#PWR043" H 11100 3900 50  0001 C CNN
F 1 "GND" H 11100 4000 50  0000 C CNN
F 2 "" H 11100 4150 50  0000 C CNN
F 3 "" H 11100 4150 50  0000 C CNN
	1    11100 4150
	0    1    1    0   
$EndComp
Connection ~ 8750 4250
Wire Wire Line
	3400 2850 3400 2950
$Comp
L Device:R R12
U 1 1 60F492F0
P 2950 3350
F 0 "R12" V 2743 3350 50  0000 C CNN
F 1 "330" V 2834 3350 50  0000 C CNN
F 2 "111_my_footprints:R_Axial_DIN0207_L6.3mm_D2.5mm_P10.16mm_Horizontal" V 2880 3350 50  0001 C CNN
F 3 "~" H 2950 3350 50  0001 C CNN
	1    2950 3350
	0    1    1    0   
$EndComp
Wire Wire Line
	2300 3350 2800 3350
$Comp
L Device:R R11
U 1 1 60239225
P 2950 2400
F 0 "R11" V 2743 2400 50  0000 C CNN
F 1 "2200" V 2834 2400 50  0000 C CNN
F 2 "111_my_footprints:R_Axial_DIN0207_L6.3mm_D2.5mm_P10.16mm_Horizontal" V 2880 2400 50  0001 C CNN
F 3 "~" H 2950 2400 50  0001 C CNN
	1    2950 2400
	-1   0    0    1   
$EndComp
Wire Wire Line
	2950 2850 2950 2950
Wire Wire Line
	2950 2950 3400 2950
Connection ~ 3400 2950
Wire Wire Line
	3400 2950 3400 3150
Wire Wire Line
	3850 2750 3850 2550
Wire Wire Line
	3400 1950 3850 1950
Connection ~ 3400 2250
Wire Wire Line
	3400 2250 3400 2550
Wire Wire Line
	2950 2250 3400 2250
$Comp
L Device:LED D1
U 1 1 60238318
P 2950 2700
F 0 "D1" H 2943 2445 50  0000 C CNN
F 1 "LED" H 2943 2536 50  0000 C CNN
F 2 "LED_THT:LED_D3.0mm" H 2950 2700 50  0001 C CNN
F 3 "~" H 2950 2700 50  0001 C CNN
	1    2950 2700
	0    -1   -1   0   
$EndComp
Wire Wire Line
	3850 2050 3600 2050
Text Label 6400 2150 2    50   ~ 0
NTC1
Wire Wire Line
	5950 2150 6400 2150
Text Label 6400 2050 2    50   ~ 0
NTC2
Text Label 6400 1950 2    50   ~ 0
NTC3
Wire Wire Line
	5950 1950 6400 1950
Text Label 6400 1850 2    50   ~ 0
NTC4
Wire Wire Line
	5950 1850 6400 1850
Text Label 6400 1750 2    50   ~ 0
NTC5
Wire Wire Line
	5950 1750 6400 1750
Text Label 6400 1650 2    50   ~ 0
NTC6
Wire Wire Line
	5950 1650 6400 1650
Text Label 6400 1550 2    50   ~ 0
NTC7
Wire Wire Line
	5950 1550 6400 1550
Text Label 6400 1450 2    50   ~ 0
NTC8
Wire Wire Line
	5950 1450 6400 1450
Text Label 6400 1350 2    50   ~ 0
NTC9
Wire Wire Line
	5950 1350 6400 1350
Text Label 6400 1250 2    50   ~ 0
NTC10
Wire Wire Line
	5950 1250 6400 1250
Text Label 6400 1050 2    50   ~ 0
5p1V
Text Label 6400 1150 2    50   ~ 0
GND_PLATE
Wire Wire Line
	6400 1150 5950 1150
Wire Wire Line
	6400 1050 5950 1050
$Comp
L power:GND #PWR029
U 1 1 6076F955
P 6400 1150
F 0 "#PWR029" H 6400 900 50  0001 C CNN
F 1 "GND" H 6400 1000 50  0000 C CNN
F 2 "" H 6400 1150 50  0000 C CNN
F 3 "" H 6400 1150 50  0000 C CNN
	1    6400 1150
	0    -1   -1   0   
$EndComp
Wire Wire Line
	5950 2050 6400 2050
$Comp
L Connector_Generic:Conn_01x02 J3
U 1 1 610D405C
P 5750 1050
F 0 "J3" H 5830 1042 50  0000 L CNN
F 1 "Conn_01x02" H 5830 951 50  0000 L CNN
F 2 "Connector_PinHeader_2.54mm:PinHeader_1x02_P2.54mm_Horizontal" H 5750 1050 50  0001 C CNN
F 3 "~" H 5750 1050 50  0001 C CNN
	1    5750 1050
	-1   0    0    -1  
$EndComp
$Comp
L Connector_Generic:Conn_01x04 J4
U 1 1 610D515C
P 5750 1350
F 0 "J4" H 5830 1342 50  0000 L CNN
F 1 "Conn_01x04" H 5830 1251 50  0000 L CNN
F 2 "Connector_PinHeader_2.54mm:PinHeader_1x04_P2.54mm_Horizontal" H 5750 1350 50  0001 C CNN
F 3 "~" H 5750 1350 50  0001 C CNN
	1    5750 1350
	-1   0    0    -1  
$EndComp
$Comp
L Connector_Generic:Conn_01x04 J5
U 1 1 61138CF3
P 5750 1750
F 0 "J5" H 5830 1742 50  0000 L CNN
F 1 "Conn_01x04" H 5830 1651 50  0000 L CNN
F 2 "Connector_PinHeader_2.54mm:PinHeader_1x04_P2.54mm_Horizontal" H 5750 1750 50  0001 C CNN
F 3 "~" H 5750 1750 50  0001 C CNN
	1    5750 1750
	-1   0    0    -1  
$EndComp
$Comp
L Connector_Generic:Conn_01x02 J6
U 1 1 61159853
P 5750 2050
F 0 "J6" H 5830 2042 50  0000 L CNN
F 1 "Conn_01x02" H 5830 1951 50  0000 L CNN
F 2 "Connector_PinHeader_2.54mm:PinHeader_1x02_P2.54mm_Horizontal" H 5750 2050 50  0001 C CNN
F 3 "~" H 5750 2050 50  0001 C CNN
	1    5750 2050
	-1   0    0    -1  
$EndComp
$Comp
L Device:R R18
U 1 1 610D0B85
P 6900 3750
F 0 "R18" H 6970 3796 50  0000 L CNN
F 1 "R" H 6970 3705 50  0000 L CNN
F 2 "Resistor_SMD:R_0805_2012Metric_Pad1.20x1.40mm_HandSolder" V 6830 3750 50  0001 C CNN
F 3 "~" H 6900 3750 50  0001 C CNN
	1    6900 3750
	1    0    0    -1  
$EndComp
$Comp
L Device:R R13
U 1 1 610DBA61
P 5100 3750
F 0 "R13" H 5170 3796 50  0000 L CNN
F 1 "R" H 5170 3705 50  0000 L CNN
F 2 "Resistor_SMD:R_0805_2012Metric_Pad1.20x1.40mm_HandSolder" V 5030 3750 50  0001 C CNN
F 3 "~" H 5100 3750 50  0001 C CNN
	1    5100 3750
	1    0    0    -1  
$EndComp
Wire Wire Line
	5000 4000 5700 4000
Wire Wire Line
	6300 3900 6900 3900
Wire Wire Line
	5100 3900 5700 3900
Wire Wire Line
	5000 4000 5000 3600
$Comp
L power:GND #PWR019
U 1 1 611DE8FC
P 4800 4000
F 0 "#PWR019" H 4800 3750 50  0001 C CNN
F 1 "GND" H 4800 3850 50  0000 C CNN
F 2 "" H 4800 4000 50  0000 C CNN
F 3 "" H 4800 4000 50  0000 C CNN
	1    4800 4000
	0    1    1    0   
$EndComp
$Comp
L power:GND #PWR018
U 1 1 611BFA14
P 4800 3600
F 0 "#PWR018" H 4800 3350 50  0001 C CNN
F 1 "GND" H 4800 3450 50  0000 C CNN
F 2 "" H 4800 3600 50  0000 C CNN
F 3 "" H 4800 3600 50  0000 C CNN
	1    4800 3600
	0    1    1    0   
$EndComp
$Comp
L Device:C_Small C13
U 1 1 6119F636
P 4900 3600
F 0 "C13" H 4808 3554 50  0000 R CNN
F 1 "100nf" H 4808 3645 50  0000 R CNN
F 2 "Capacitor_SMD:C_0805_2012Metric_Pad1.18x1.45mm_HandSolder" H 4900 3600 50  0001 C CNN
F 3 "~" H 4900 3600 50  0001 C CNN
	1    4900 3600
	0    1    -1   0   
$EndComp
$Comp
L Device:C_Small C14
U 1 1 611800E2
P 4900 4000
F 0 "C14" H 4808 3954 50  0000 R CNN
F 1 "5µf" H 4808 4045 50  0000 R CNN
F 2 "Capacitor_SMD:C_0805_2012Metric_Pad1.18x1.45mm_HandSolder" H 4900 4000 50  0001 C CNN
F 3 "~" H 4900 4000 50  0001 C CNN
	1    4900 4000
	0    1    -1   0   
$EndComp
Text Label 5100 3600 1    50   ~ 0
5p1V
Wire Wire Line
	5100 3450 5100 3600
Text Label 6900 3600 1    50   ~ 0
5p1V
Wire Wire Line
	6900 3450 6900 3600
Text Label 6750 4900 2    50   ~ 0
GND_PLATE
Wire Wire Line
	6750 4900 6300 4900
Text Label 5250 4900 0    50   ~ 0
5p1V
Text Label 6800 4800 2    50   ~ 0
GPIO2(SDA1)
$Comp
L 111_my_symbols:HYT_939p HYT_2
U 1 1 613CC6FA
P 5700 4800
F 0 "HYT_2" H 6000 5025 50  0000 C CNN
F 1 "HYT_939p" H 6000 4934 50  0000 C CNN
F 2 "111_my_footprints:HYT_939p" H 5900 4750 50  0001 C CNN
F 3 "" H 5900 4750 50  0001 C CNN
	1    5700 4800
	1    0    0    -1  
$EndComp
Text Label 5200 4800 0    50   ~ 0
GPIO3(SCL1)
$Comp
L Device:R R19
U 1 1 613CC701
P 6900 4650
F 0 "R19" H 6970 4696 50  0000 L CNN
F 1 "R" H 6970 4605 50  0000 L CNN
F 2 "Resistor_SMD:R_0805_2012Metric_Pad1.20x1.40mm_HandSolder" V 6830 4650 50  0001 C CNN
F 3 "~" H 6900 4650 50  0001 C CNN
	1    6900 4650
	1    0    0    -1  
$EndComp
$Comp
L Device:R R14
U 1 1 613CC707
P 5100 4650
F 0 "R14" H 5170 4696 50  0000 L CNN
F 1 "R" H 5170 4605 50  0000 L CNN
F 2 "Resistor_SMD:R_0805_2012Metric_Pad1.20x1.40mm_HandSolder" V 5030 4650 50  0001 C CNN
F 3 "~" H 5100 4650 50  0001 C CNN
	1    5100 4650
	1    0    0    -1  
$EndComp
Wire Wire Line
	5000 4900 5700 4900
Wire Wire Line
	6300 4800 6900 4800
Wire Wire Line
	5100 4800 5700 4800
Wire Wire Line
	5000 4900 5000 4500
$Comp
L power:GND #PWR021
U 1 1 613CC711
P 4800 4900
F 0 "#PWR021" H 4800 4650 50  0001 C CNN
F 1 "GND" H 4800 4750 50  0000 C CNN
F 2 "" H 4800 4900 50  0000 C CNN
F 3 "" H 4800 4900 50  0000 C CNN
	1    4800 4900
	0    1    1    0   
$EndComp
$Comp
L power:GND #PWR020
U 1 1 613CC717
P 4800 4500
F 0 "#PWR020" H 4800 4250 50  0001 C CNN
F 1 "GND" H 4800 4350 50  0000 C CNN
F 2 "" H 4800 4500 50  0000 C CNN
F 3 "" H 4800 4500 50  0000 C CNN
	1    4800 4500
	0    1    1    0   
$EndComp
$Comp
L Device:C_Small C15
U 1 1 613CC71D
P 4900 4500
F 0 "C15" H 4808 4454 50  0000 R CNN
F 1 "100nf" H 4808 4545 50  0000 R CNN
F 2 "Capacitor_SMD:C_0805_2012Metric_Pad1.18x1.45mm_HandSolder" H 4900 4500 50  0001 C CNN
F 3 "~" H 4900 4500 50  0001 C CNN
	1    4900 4500
	0    1    -1   0   
$EndComp
$Comp
L Device:C_Small C16
U 1 1 613CC723
P 4900 4900
F 0 "C16" H 4808 4854 50  0000 R CNN
F 1 "5µf" H 4808 4945 50  0000 R CNN
F 2 "Capacitor_SMD:C_0805_2012Metric_Pad1.18x1.45mm_HandSolder" H 4900 4900 50  0001 C CNN
F 3 "~" H 4900 4900 50  0001 C CNN
	1    4900 4900
	0    1    -1   0   
$EndComp
Text Label 5100 4500 1    50   ~ 0
5p1V
Wire Wire Line
	5100 4350 5100 4500
Text Label 6900 4500 1    50   ~ 0
5p1V
Wire Wire Line
	6900 4350 6900 4500
Text Label 6750 5800 2    50   ~ 0
GND_PLATE
Wire Wire Line
	6750 5800 6300 5800
Text Label 5250 5800 0    50   ~ 0
5p1V
Text Label 6800 5700 2    50   ~ 0
GPIO2(SDA1)
$Comp
L 111_my_symbols:HYT_939p HYT_3
U 1 1 613F58F2
P 5700 5700
F 0 "HYT_3" H 6000 5925 50  0000 C CNN
F 1 "HYT_939p" H 6000 5834 50  0000 C CNN
F 2 "111_my_footprints:HYT_939p" H 5900 5650 50  0001 C CNN
F 3 "" H 5900 5650 50  0001 C CNN
	1    5700 5700
	1    0    0    -1  
$EndComp
Text Label 5200 5700 0    50   ~ 0
GPIO3(SCL1)
$Comp
L Device:R R20
U 1 1 613F58F9
P 6900 5550
F 0 "R20" H 6970 5596 50  0000 L CNN
F 1 "R" H 6970 5505 50  0000 L CNN
F 2 "Resistor_SMD:R_0805_2012Metric_Pad1.20x1.40mm_HandSolder" V 6830 5550 50  0001 C CNN
F 3 "~" H 6900 5550 50  0001 C CNN
	1    6900 5550
	1    0    0    -1  
$EndComp
$Comp
L Device:R R15
U 1 1 613F58FF
P 5100 5550
F 0 "R15" H 5170 5596 50  0000 L CNN
F 1 "R" H 5170 5505 50  0000 L CNN
F 2 "Resistor_SMD:R_0805_2012Metric_Pad1.20x1.40mm_HandSolder" V 5030 5550 50  0001 C CNN
F 3 "~" H 5100 5550 50  0001 C CNN
	1    5100 5550
	1    0    0    -1  
$EndComp
Wire Wire Line
	5000 5800 5700 5800
Wire Wire Line
	6300 5700 6900 5700
Wire Wire Line
	5100 5700 5700 5700
Wire Wire Line
	5000 5800 5000 5400
$Comp
L power:GND #PWR023
U 1 1 613F5909
P 4800 5800
F 0 "#PWR023" H 4800 5550 50  0001 C CNN
F 1 "GND" H 4800 5650 50  0000 C CNN
F 2 "" H 4800 5800 50  0000 C CNN
F 3 "" H 4800 5800 50  0000 C CNN
	1    4800 5800
	0    1    1    0   
$EndComp
$Comp
L power:GND #PWR022
U 1 1 613F590F
P 4800 5400
F 0 "#PWR022" H 4800 5150 50  0001 C CNN
F 1 "GND" H 4800 5250 50  0000 C CNN
F 2 "" H 4800 5400 50  0000 C CNN
F 3 "" H 4800 5400 50  0000 C CNN
	1    4800 5400
	0    1    1    0   
$EndComp
$Comp
L Device:C_Small C17
U 1 1 613F5915
P 4900 5400
F 0 "C17" H 4808 5354 50  0000 R CNN
F 1 "100nf" H 4808 5445 50  0000 R CNN
F 2 "Capacitor_SMD:C_0805_2012Metric_Pad1.18x1.45mm_HandSolder" H 4900 5400 50  0001 C CNN
F 3 "~" H 4900 5400 50  0001 C CNN
	1    4900 5400
	0    1    -1   0   
$EndComp
$Comp
L Device:C_Small C18
U 1 1 613F591B
P 4900 5800
F 0 "C18" H 4808 5754 50  0000 R CNN
F 1 "5µf" H 4808 5845 50  0000 R CNN
F 2 "Capacitor_SMD:C_0805_2012Metric_Pad1.18x1.45mm_HandSolder" H 4900 5800 50  0001 C CNN
F 3 "~" H 4900 5800 50  0001 C CNN
	1    4900 5800
	0    1    -1   0   
$EndComp
Text Label 5100 5400 1    50   ~ 0
5p1V
Wire Wire Line
	5100 5250 5100 5400
Text Label 6900 5400 1    50   ~ 0
5p1V
Wire Wire Line
	6900 5250 6900 5400
Text Label 6750 6700 2    50   ~ 0
GND_PLATE
Wire Wire Line
	6750 6700 6300 6700
Text Label 5250 6700 0    50   ~ 0
5p1V
Text Label 6800 6600 2    50   ~ 0
GPIO2(SDA1)
$Comp
L 111_my_symbols:HYT_939p HYT_4
U 1 1 613F5929
P 5700 6600
F 0 "HYT_4" H 6000 6825 50  0000 C CNN
F 1 "HYT_939p" H 6000 6734 50  0000 C CNN
F 2 "111_my_footprints:HYT_939p" H 5900 6550 50  0001 C CNN
F 3 "" H 5900 6550 50  0001 C CNN
	1    5700 6600
	1    0    0    -1  
$EndComp
Text Label 5200 6600 0    50   ~ 0
GPIO3(SCL1)
$Comp
L Device:R R21
U 1 1 613F5930
P 6900 6450
F 0 "R21" H 6970 6496 50  0000 L CNN
F 1 "R" H 6970 6405 50  0000 L CNN
F 2 "Resistor_SMD:R_0805_2012Metric_Pad1.20x1.40mm_HandSolder" V 6830 6450 50  0001 C CNN
F 3 "~" H 6900 6450 50  0001 C CNN
	1    6900 6450
	1    0    0    -1  
$EndComp
$Comp
L Device:R R16
U 1 1 613F5936
P 5100 6450
F 0 "R16" H 5170 6496 50  0000 L CNN
F 1 "R" H 5170 6405 50  0000 L CNN
F 2 "Resistor_SMD:R_0805_2012Metric_Pad1.20x1.40mm_HandSolder" V 5030 6450 50  0001 C CNN
F 3 "~" H 5100 6450 50  0001 C CNN
	1    5100 6450
	1    0    0    -1  
$EndComp
Wire Wire Line
	5000 6700 5700 6700
Wire Wire Line
	6300 6600 6900 6600
Wire Wire Line
	5100 6600 5700 6600
Wire Wire Line
	5000 6700 5000 6300
$Comp
L power:GND #PWR025
U 1 1 613F5940
P 4800 6700
F 0 "#PWR025" H 4800 6450 50  0001 C CNN
F 1 "GND" H 4800 6550 50  0000 C CNN
F 2 "" H 4800 6700 50  0000 C CNN
F 3 "" H 4800 6700 50  0000 C CNN
	1    4800 6700
	0    1    1    0   
$EndComp
$Comp
L power:GND #PWR024
U 1 1 613F5946
P 4800 6300
F 0 "#PWR024" H 4800 6050 50  0001 C CNN
F 1 "GND" H 4800 6150 50  0000 C CNN
F 2 "" H 4800 6300 50  0000 C CNN
F 3 "" H 4800 6300 50  0000 C CNN
	1    4800 6300
	0    1    1    0   
$EndComp
$Comp
L Device:C_Small C19
U 1 1 613F594C
P 4900 6300
F 0 "C19" H 4808 6254 50  0000 R CNN
F 1 "100nf" H 4808 6345 50  0000 R CNN
F 2 "Capacitor_SMD:C_0805_2012Metric_Pad1.18x1.45mm_HandSolder" H 4900 6300 50  0001 C CNN
F 3 "~" H 4900 6300 50  0001 C CNN
	1    4900 6300
	0    1    -1   0   
$EndComp
$Comp
L Device:C_Small C20
U 1 1 613F5952
P 4900 6700
F 0 "C20" H 4808 6654 50  0000 R CNN
F 1 "5µf" H 4808 6745 50  0000 R CNN
F 2 "Capacitor_SMD:C_0805_2012Metric_Pad1.18x1.45mm_HandSolder" H 4900 6700 50  0001 C CNN
F 3 "~" H 4900 6700 50  0001 C CNN
	1    4900 6700
	0    1    -1   0   
$EndComp
Text Label 5100 6300 1    50   ~ 0
5p1V
Wire Wire Line
	5100 6150 5100 6300
Text Label 6900 6300 1    50   ~ 0
5p1V
Wire Wire Line
	6900 6150 6900 6300
Text Label 6750 7600 2    50   ~ 0
GND_PLATE
Wire Wire Line
	6750 7600 6300 7600
Text Label 5250 7600 0    50   ~ 0
5p1V
Text Label 6800 7500 2    50   ~ 0
GPIO2(SDA1)
$Comp
L 111_my_symbols:HYT_939p HYT_5
U 1 1 6143E3D2
P 5700 7500
F 0 "HYT_5" H 6000 7725 50  0000 C CNN
F 1 "HYT_939p" H 6000 7634 50  0000 C CNN
F 2 "111_my_footprints:HYT_939p" H 5900 7450 50  0001 C CNN
F 3 "" H 5900 7450 50  0001 C CNN
	1    5700 7500
	1    0    0    -1  
$EndComp
Text Label 5200 7500 0    50   ~ 0
GPIO3(SCL1)
$Comp
L Device:R R22
U 1 1 6143E3D9
P 6900 7350
F 0 "R22" H 6970 7396 50  0000 L CNN
F 1 "R" H 6970 7305 50  0000 L CNN
F 2 "Resistor_SMD:R_0805_2012Metric_Pad1.20x1.40mm_HandSolder" V 6830 7350 50  0001 C CNN
F 3 "~" H 6900 7350 50  0001 C CNN
	1    6900 7350
	1    0    0    -1  
$EndComp
$Comp
L Device:R R17
U 1 1 6143E3DF
P 5100 7350
F 0 "R17" H 5170 7396 50  0000 L CNN
F 1 "R" H 5170 7305 50  0000 L CNN
F 2 "Resistor_SMD:R_0805_2012Metric_Pad1.20x1.40mm_HandSolder" V 5030 7350 50  0001 C CNN
F 3 "~" H 5100 7350 50  0001 C CNN
	1    5100 7350
	1    0    0    -1  
$EndComp
Wire Wire Line
	5000 7600 5700 7600
Wire Wire Line
	6300 7500 6900 7500
Wire Wire Line
	5100 7500 5700 7500
Wire Wire Line
	5000 7600 5000 7200
$Comp
L power:GND #PWR027
U 1 1 6143E3E9
P 4800 7600
F 0 "#PWR027" H 4800 7350 50  0001 C CNN
F 1 "GND" H 4800 7450 50  0000 C CNN
F 2 "" H 4800 7600 50  0000 C CNN
F 3 "" H 4800 7600 50  0000 C CNN
	1    4800 7600
	0    1    1    0   
$EndComp
$Comp
L power:GND #PWR026
U 1 1 6143E3EF
P 4800 7200
F 0 "#PWR026" H 4800 6950 50  0001 C CNN
F 1 "GND" H 4800 7050 50  0000 C CNN
F 2 "" H 4800 7200 50  0000 C CNN
F 3 "" H 4800 7200 50  0000 C CNN
	1    4800 7200
	0    1    1    0   
$EndComp
$Comp
L Device:C_Small C21
U 1 1 6143E3F5
P 4900 7200
F 0 "C21" H 4808 7154 50  0000 R CNN
F 1 "100nf" H 4808 7245 50  0000 R CNN
F 2 "Capacitor_SMD:C_0805_2012Metric_Pad1.18x1.45mm_HandSolder" H 4900 7200 50  0001 C CNN
F 3 "~" H 4900 7200 50  0001 C CNN
	1    4900 7200
	0    1    -1   0   
$EndComp
$Comp
L Device:C_Small C22
U 1 1 6143E3FB
P 4900 7600
F 0 "C22" H 4808 7554 50  0000 R CNN
F 1 "5µf" H 4808 7645 50  0000 R CNN
F 2 "Capacitor_SMD:C_0805_2012Metric_Pad1.18x1.45mm_HandSolder" H 4900 7600 50  0001 C CNN
F 3 "~" H 4900 7600 50  0001 C CNN
	1    4900 7600
	0    1    -1   0   
$EndComp
Text Label 5100 7200 1    50   ~ 0
5p1V
Wire Wire Line
	5100 7050 5100 7200
Text Label 6900 7200 1    50   ~ 0
5p1V
Wire Wire Line
	6900 7050 6900 7200
Wire Wire Line
	3400 1950 3400 2250
Text Label 12000 1250 2    50   ~ 0
5p1V
Wire Wire Line
	11850 1250 12000 1250
Text Label 12000 1350 2    50   ~ 0
5p1V
Wire Wire Line
	11850 1350 12000 1350
$Comp
L Device:D D2
U 1 1 6144BA3F
P 3650 2700
F 0 "D2" V 3604 2780 50  0000 L CNN
F 1 "D" V 3695 2780 50  0000 L CNN
F 2 "Diode_THT:D_A-405_P7.62mm_Horizontal" H 3650 2700 50  0001 C CNN
F 3 "~" H 3650 2700 50  0001 C CNN
	1    3650 2700
	0    1    1    0   
$EndComp
Wire Wire Line
	3400 2850 3650 2850
Wire Wire Line
	3850 2850 3650 2850
Connection ~ 3650 2850
Wire Wire Line
	3850 2550 3650 2550
Wire Wire Line
	3400 2550 3650 2550
Connection ~ 3650 2550
$EndSCHEMATC
