(export (version D)
  (design
    (source /home/pekman/itk/pcb2/pitk_hat/PitK_hat_V2.sch)
    (date "mån 23 aug 2021 14:59:56")
    (tool "Eeschema 5.1.10-88a1d61d58~88~ubuntu18.04.1")
    (sheet (number 1) (name /) (tstamps /)
      (title_block
        (title)
        (company)
        (rev)
        (date "15 nov 2012")
        (source PitK_hat_V2.sch)
        (comment (number 1) (value ""))
        (comment (number 2) (value creativecommons.org/licenses/by/4.0/))
        (comment (number 3) (value "License: CC BY 4.0"))
        (comment (number 4) (value "Author: Alexander Ekman")))))
  (components
    (comp (ref C12)
      (value 0.01µf)
      (footprint Capacitor_THT:C_Rect_L7.2mm_W3.5mm_P5.00mm_FKS2_FKP2_MKS2_MKP2)
      (datasheet ~)
      (libsource (lib Device) (part C) (description "Unpolarized capacitor"))
      (sheetpath (names /) (tstamps /))
      (tstamp 603CAF99))
    (comp (ref R1)
      (value R)
      (footprint 111_my_footprints:R_Axial_DIN0207_L6.3mm_D2.5mm_P10.16mm_Horizontal)
      (datasheet ~)
      (libsource (lib Device) (part R) (description Resistor))
      (sheetpath (names /) (tstamps /))
      (tstamp 603120B9))
    (comp (ref R2)
      (value R)
      (footprint 111_my_footprints:R_Axial_DIN0207_L6.3mm_D2.5mm_P10.16mm_Horizontal)
      (datasheet ~)
      (libsource (lib Device) (part R) (description Resistor))
      (sheetpath (names /) (tstamps /))
      (tstamp 60341D73))
    (comp (ref J7)
      (value Conn_01x06_Female)
      (footprint Connector_PinSocket_2.54mm:PinSocket_1x06_P2.54mm_Horizontal)
      (datasheet ~)
      (libsource (lib Connector) (part Conn_01x06_Female) (description ""))
      (sheetpath (names /) (tstamps /))
      (tstamp 606D1863))
    (comp (ref P1)
      (value Conn_02x20_Odd_Even)
      (footprint Connector_PinSocket_2.54mm:PinSocket_2x20_P2.54mm_Vertical)
      (libsource (lib Connector_Generic) (part Conn_02x20_Odd_Even) (description "Generic connector, double row, 02x20, odd/even pin numbering scheme (row 1 odd numbers, row 2 even numbers), script generated (kicad-library-utils/schlib/autogen/connector/)"))
      (sheetpath (names /) (tstamps /))
      (tstamp 59AD464A))
    (comp (ref NTC1)
      (value Conn_01x02)
      (footprint "111_my_footprints:B2B-XH-A(LF)(SN)")
      (datasheet ~)
      (libsource (lib Connector_Generic) (part Conn_01x02) (description "Generic connector, single row, 01x02, script generated (kicad-library-utils/schlib/autogen/connector/)"))
      (sheetpath (names /) (tstamps /))
      (tstamp 60454891))
    (comp (ref NTC2)
      (value Conn_01x02)
      (footprint "111_my_footprints:B2B-XH-A(LF)(SN)")
      (datasheet ~)
      (libsource (lib Connector_Generic) (part Conn_01x02) (description "Generic connector, single row, 01x02, script generated (kicad-library-utils/schlib/autogen/connector/)"))
      (sheetpath (names /) (tstamps /))
      (tstamp 604BD580))
    (comp (ref NTC3)
      (value Conn_01x02)
      (footprint "111_my_footprints:B2B-XH-A(LF)(SN)")
      (datasheet ~)
      (libsource (lib Connector_Generic) (part Conn_01x02) (description "Generic connector, single row, 01x02, script generated (kicad-library-utils/schlib/autogen/connector/)"))
      (sheetpath (names /) (tstamps /))
      (tstamp 604C666F))
    (comp (ref NTC4)
      (value Conn_01x02)
      (footprint "111_my_footprints:B2B-XH-A(LF)(SN)")
      (datasheet ~)
      (libsource (lib Connector_Generic) (part Conn_01x02) (description "Generic connector, single row, 01x02, script generated (kicad-library-utils/schlib/autogen/connector/)"))
      (sheetpath (names /) (tstamps /))
      (tstamp 604CF93B))
    (comp (ref NTC5)
      (value Conn_01x02)
      (footprint "111_my_footprints:B2B-XH-A(LF)(SN)")
      (datasheet ~)
      (libsource (lib Connector_Generic) (part Conn_01x02) (description "Generic connector, single row, 01x02, script generated (kicad-library-utils/schlib/autogen/connector/)"))
      (sheetpath (names /) (tstamps /))
      (tstamp 604D8C4C))
    (comp (ref NTC6)
      (value Conn_01x02)
      (footprint "111_my_footprints:B2B-XH-A(LF)(SN)")
      (datasheet ~)
      (libsource (lib Connector_Generic) (part Conn_01x02) (description "Generic connector, single row, 01x02, script generated (kicad-library-utils/schlib/autogen/connector/)"))
      (sheetpath (names /) (tstamps /))
      (tstamp 604E234E))
    (comp (ref NTC7)
      (value Conn_01x02)
      (footprint "111_my_footprints:B2B-XH-A(LF)(SN)")
      (datasheet ~)
      (libsource (lib Connector_Generic) (part Conn_01x02) (description "Generic connector, single row, 01x02, script generated (kicad-library-utils/schlib/autogen/connector/)"))
      (sheetpath (names /) (tstamps /))
      (tstamp 604F1CB3))
    (comp (ref NTC8)
      (value Conn_01x02)
      (footprint "111_my_footprints:B2B-XH-A(LF)(SN)")
      (datasheet ~)
      (libsource (lib Connector_Generic) (part Conn_01x02) (description "Generic connector, single row, 01x02, script generated (kicad-library-utils/schlib/autogen/connector/)"))
      (sheetpath (names /) (tstamps /))
      (tstamp 604FB583))
    (comp (ref NTC9)
      (value Conn_01x02)
      (footprint "111_my_footprints:B2B-XH-A(LF)(SN)")
      (datasheet ~)
      (libsource (lib Connector_Generic) (part Conn_01x02) (description "Generic connector, single row, 01x02, script generated (kicad-library-utils/schlib/autogen/connector/)"))
      (sheetpath (names /) (tstamps /))
      (tstamp 6050509E))
    (comp (ref NTC10)
      (value Conn_01x02)
      (footprint "111_my_footprints:B2B-XH-A(LF)(SN)")
      (datasheet ~)
      (libsource (lib Connector_Generic) (part Conn_01x02) (description "Generic connector, single row, 01x02, script generated (kicad-library-utils/schlib/autogen/connector/)"))
      (sheetpath (names /) (tstamps /))
      (tstamp 6050EDF8))
    (comp (ref C1)
      (value 0.1µf)
      (footprint Capacitor_SMD:C_0805_2012Metric_Pad1.18x1.45mm_HandSolder)
      (datasheet ~)
      (libsource (lib Device) (part C_Small) (description "Unpolarized capacitor, small symbol"))
      (sheetpath (names /) (tstamps /))
      (tstamp 6063F46F))
    (comp (ref C2)
      (value 0.1µf)
      (footprint Capacitor_SMD:C_0805_2012Metric_Pad1.18x1.45mm_HandSolder)
      (datasheet ~)
      (libsource (lib Device) (part C_Small) (description "Unpolarized capacitor, small symbol"))
      (sheetpath (names /) (tstamps /))
      (tstamp 607BF3E9))
    (comp (ref R3)
      (value R)
      (footprint 111_my_footprints:R_Axial_DIN0207_L6.3mm_D2.5mm_P10.16mm_Horizontal)
      (datasheet ~)
      (libsource (lib Device) (part R) (description Resistor))
      (sheetpath (names /) (tstamps /))
      (tstamp 607D5B0C))
    (comp (ref C3)
      (value 0.1µf)
      (footprint Capacitor_SMD:C_0805_2012Metric_Pad1.18x1.45mm_HandSolder)
      (datasheet ~)
      (libsource (lib Device) (part C_Small) (description "Unpolarized capacitor, small symbol"))
      (sheetpath (names /) (tstamps /))
      (tstamp 607D5B14))
    (comp (ref R4)
      (value R)
      (footprint 111_my_footprints:R_Axial_DIN0207_L6.3mm_D2.5mm_P10.16mm_Horizontal)
      (datasheet ~)
      (libsource (lib Device) (part R) (description Resistor))
      (sheetpath (names /) (tstamps /))
      (tstamp 6085E815))
    (comp (ref C4)
      (value 0.1µf)
      (footprint Capacitor_SMD:C_0805_2012Metric_Pad1.18x1.45mm_HandSolder)
      (datasheet ~)
      (libsource (lib Device) (part C_Small) (description "Unpolarized capacitor, small symbol"))
      (sheetpath (names /) (tstamps /))
      (tstamp 6085E81D))
    (comp (ref R5)
      (value R)
      (footprint 111_my_footprints:R_Axial_DIN0207_L6.3mm_D2.5mm_P10.16mm_Horizontal)
      (datasheet ~)
      (libsource (lib Device) (part R) (description Resistor))
      (sheetpath (names /) (tstamps /))
      (tstamp 60870B3B))
    (comp (ref C5)
      (value 0.1µf)
      (footprint Capacitor_SMD:C_0805_2012Metric_Pad1.18x1.45mm_HandSolder)
      (datasheet ~)
      (libsource (lib Device) (part C_Small) (description "Unpolarized capacitor, small symbol"))
      (sheetpath (names /) (tstamps /))
      (tstamp 60870B43))
    (comp (ref R6)
      (value R)
      (footprint 111_my_footprints:R_Axial_DIN0207_L6.3mm_D2.5mm_P10.16mm_Horizontal)
      (datasheet ~)
      (libsource (lib Device) (part R) (description Resistor))
      (sheetpath (names /) (tstamps /))
      (tstamp 60883410))
    (comp (ref C6)
      (value 0.1µf)
      (footprint Capacitor_SMD:C_0805_2012Metric_Pad1.18x1.45mm_HandSolder)
      (datasheet ~)
      (libsource (lib Device) (part C_Small) (description "Unpolarized capacitor, small symbol"))
      (sheetpath (names /) (tstamps /))
      (tstamp 60883418))
    (comp (ref R7)
      (value R)
      (footprint 111_my_footprints:R_Axial_DIN0207_L6.3mm_D2.5mm_P10.16mm_Horizontal)
      (datasheet ~)
      (libsource (lib Device) (part R) (description Resistor))
      (sheetpath (names /) (tstamps /))
      (tstamp 608975DA))
    (comp (ref C7)
      (value 0.1µf)
      (footprint Capacitor_SMD:C_0805_2012Metric_Pad1.18x1.45mm_HandSolder)
      (datasheet ~)
      (libsource (lib Device) (part C_Small) (description "Unpolarized capacitor, small symbol"))
      (sheetpath (names /) (tstamps /))
      (tstamp 608975E2))
    (comp (ref R8)
      (value R)
      (footprint 111_my_footprints:R_Axial_DIN0207_L6.3mm_D2.5mm_P10.16mm_Horizontal)
      (datasheet ~)
      (libsource (lib Device) (part R) (description Resistor))
      (sheetpath (names /) (tstamps /))
      (tstamp 608AA015))
    (comp (ref C8)
      (value 0.1µf)
      (footprint Capacitor_SMD:C_0805_2012Metric_Pad1.18x1.45mm_HandSolder)
      (datasheet ~)
      (libsource (lib Device) (part C_Small) (description "Unpolarized capacitor, small symbol"))
      (sheetpath (names /) (tstamps /))
      (tstamp 608AA01D))
    (comp (ref R9)
      (value R)
      (footprint 111_my_footprints:R_Axial_DIN0207_L6.3mm_D2.5mm_P10.16mm_Horizontal)
      (datasheet ~)
      (libsource (lib Device) (part R) (description Resistor))
      (sheetpath (names /) (tstamps /))
      (tstamp 608BD38B))
    (comp (ref C9)
      (value 0.1µf)
      (footprint Capacitor_SMD:C_0805_2012Metric_Pad1.18x1.45mm_HandSolder)
      (datasheet ~)
      (libsource (lib Device) (part C_Small) (description "Unpolarized capacitor, small symbol"))
      (sheetpath (names /) (tstamps /))
      (tstamp 608BD393))
    (comp (ref R10)
      (value R)
      (footprint 111_my_footprints:R_Axial_DIN0207_L6.3mm_D2.5mm_P10.16mm_Horizontal)
      (datasheet ~)
      (libsource (lib Device) (part R) (description Resistor))
      (sheetpath (names /) (tstamps /))
      (tstamp 60922798))
    (comp (ref C10)
      (value 0.1µf)
      (footprint Capacitor_SMD:C_0805_2012Metric_Pad1.18x1.45mm_HandSolder)
      (datasheet ~)
      (libsource (lib Device) (part C_Small) (description "Unpolarized capacitor, small symbol"))
      (sheetpath (names /) (tstamps /))
      (tstamp 609227A0))
    (comp (ref J9)
      (value Conn_01x18)
      (footprint 111_my_footprints:PinSocket_1x18_P2.54mm_Vertical)
      (datasheet ~)
      (libsource (lib Connector_Generic) (part Conn_01x18) (description "Generic connector, single row, 01x18, script generated (kicad-library-utils/schlib/autogen/connector/)"))
      (sheetpath (names /) (tstamps /))
      (tstamp 60AEAE00))
    (comp (ref C11)
      (value 10µf)
      (footprint Capacitor_THT:CP_Radial_D5.0mm_P2.00mm)
      (datasheet ~)
      (libsource (lib Device) (part CP) (description "Polarized capacitor"))
      (sheetpath (names /) (tstamps /))
      (tstamp 603CBBDB))
    (comp (ref J2)
      (value 1757475)
      (footprint 111_my_footprints:CPM_5p08)
      (libsource (lib phoenix) (part 1757475) (description ""))
      (sheetpath (names /) (tstamps /))
      (tstamp 60793EA2))
    (comp (ref J1)
      (value 1757475)
      (footprint 111_my_footprints:CPM_5p08)
      (libsource (lib phoenix) (part 1757475) (description ""))
      (sheetpath (names /) (tstamps /))
      (tstamp 607E7EC9))
    (comp (ref J10)
      (value DB37_Female_MountingHoles)
      (footprint 111_my_footprints:DSUB-37_Female_Horizontal_P2.77x2.84mm_EdgePinOffset7.70mm_Housed_MountingHolesOffset9.12mm)
      (libsource (lib Connector) (part DB37_Female_MountingHoles) (description ""))
      (sheetpath (names /) (tstamps /))
      (tstamp 6076E0E0))
    (comp (ref J8)
      (value DB37_Male_MountingHoles)
      (footprint 111_my_footprints:DSUB-37_Male_Vertical_P2.77x2.84mm_MountingHoles)
      (libsource (lib Connector) (part DB37_Male_MountingHoles) (description ""))
      (sheetpath (names /) (tstamps /))
      (tstamp 60779E80))
    (comp (ref HYT_1)
      (value HYT_939p)
      (footprint 111_my_footprints:HYT_939p)
      (libsource (lib 111_my_symbols) (part HYT_939p) (description ""))
      (sheetpath (names /) (tstamps /))
      (tstamp 607DCC3B))
    (comp (ref J20)
      (value Conn_01x04)
      (footprint 111_my_footprints:grove_4pin_horizontal)
      (datasheet ~)
      (libsource (lib Connector_Generic) (part Conn_01x04) (description "Generic connector, single row, 01x04, script generated (kicad-library-utils/schlib/autogen/connector/)"))
      (sheetpath (names /) (tstamps /))
      (tstamp 60B974CC))
    (comp (ref J19)
      (value Conn_01x04)
      (footprint 111_my_footprints:grove_4pin_horizontal)
      (datasheet ~)
      (libsource (lib Connector_Generic) (part Conn_01x04) (description "Generic connector, single row, 01x04, script generated (kicad-library-utils/schlib/autogen/connector/)"))
      (sheetpath (names /) (tstamps /))
      (tstamp 60C1859D))
    (comp (ref J18)
      (value Conn_01x04)
      (footprint 111_my_footprints:grove_4pin_horizontal)
      (datasheet ~)
      (libsource (lib Connector_Generic) (part Conn_01x04) (description "Generic connector, single row, 01x04, script generated (kicad-library-utils/schlib/autogen/connector/)"))
      (sheetpath (names /) (tstamps /))
      (tstamp 60C2F08B))
    (comp (ref J17)
      (value Conn_01x04)
      (footprint 111_my_footprints:grove_4pin_horizontal)
      (datasheet ~)
      (libsource (lib Connector_Generic) (part Conn_01x04) (description "Generic connector, single row, 01x04, script generated (kicad-library-utils/schlib/autogen/connector/)"))
      (sheetpath (names /) (tstamps /))
      (tstamp 60C4815F))
    (comp (ref J16)
      (value Conn_01x04)
      (footprint 111_my_footprints:grove_4pin_horizontal)
      (datasheet ~)
      (libsource (lib Connector_Generic) (part Conn_01x04) (description "Generic connector, single row, 01x04, script generated (kicad-library-utils/schlib/autogen/connector/)"))
      (sheetpath (names /) (tstamps /))
      (tstamp 60C4816D))
    (comp (ref J15)
      (value Conn_01x04)
      (footprint 111_my_footprints:grove_4pin_vertical)
      (datasheet ~)
      (libsource (lib Connector_Generic) (part Conn_01x04) (description "Generic connector, single row, 01x04, script generated (kicad-library-utils/schlib/autogen/connector/)"))
      (sheetpath (names /) (tstamps /))
      (tstamp 60C4817B))
    (comp (ref J14)
      (value Conn_01x04)
      (footprint 111_my_footprints:grove_4pin_vertical)
      (datasheet ~)
      (libsource (lib Connector_Generic) (part Conn_01x04) (description "Generic connector, single row, 01x04, script generated (kicad-library-utils/schlib/autogen/connector/)"))
      (sheetpath (names /) (tstamps /))
      (tstamp 60C68A40))
    (comp (ref J13)
      (value Conn_01x04)
      (footprint 111_my_footprints:grove_4pin_vertical)
      (datasheet ~)
      (libsource (lib Connector_Generic) (part Conn_01x04) (description "Generic connector, single row, 01x04, script generated (kicad-library-utils/schlib/autogen/connector/)"))
      (sheetpath (names /) (tstamps /))
      (tstamp 60C68A4E))
    (comp (ref J12)
      (value Conn_01x04)
      (footprint 111_my_footprints:grove_4pin_vertical)
      (datasheet ~)
      (libsource (lib Connector_Generic) (part Conn_01x04) (description "Generic connector, single row, 01x04, script generated (kicad-library-utils/schlib/autogen/connector/)"))
      (sheetpath (names /) (tstamps /))
      (tstamp 60C68A5C))
    (comp (ref J11)
      (value Conn_01x04)
      (footprint 111_my_footprints:grove_4pin_vertical)
      (datasheet ~)
      (libsource (lib Connector_Generic) (part Conn_01x04) (description "Generic connector, single row, 01x04, script generated (kicad-library-utils/schlib/autogen/connector/)"))
      (sheetpath (names /) (tstamps /))
      (tstamp 60C68A6A))
    (comp (ref Q1)
      (value Q_NPN_Darlington_BCE)
      (footprint 111_my_footprints:TIP112_heat)
      (datasheet ~)
      (libsource (lib 111_my_symbols) (part Q_NPN_Darlington_BCE) (description "NPN Darlington transistor, base/collector/emitter"))
      (sheetpath (names /) (tstamps /))
      (tstamp 60B3F12A))
    (comp (ref J21)
      (value Conn_01x04)
      (footprint 111_my_footprints:grove_4pin_horizontal)
      (datasheet ~)
      (libsource (lib Connector_Generic) (part Conn_01x04) (description "Generic connector, single row, 01x04, script generated (kicad-library-utils/schlib/autogen/connector/)"))
      (sheetpath (names /) (tstamps /))
      (tstamp 60F127C1))
    (comp (ref J22)
      (value Conn_01x04)
      (footprint 111_my_footprints:grove_4pin_horizontal)
      (datasheet ~)
      (libsource (lib Connector_Generic) (part Conn_01x04) (description "Generic connector, single row, 01x04, script generated (kicad-library-utils/schlib/autogen/connector/)"))
      (sheetpath (names /) (tstamps /))
      (tstamp 60F127B3))
    (comp (ref J23)
      (value Conn_01x04)
      (footprint 111_my_footprints:grove_4pin_horizontal)
      (datasheet ~)
      (libsource (lib Connector_Generic) (part Conn_01x04) (description "Generic connector, single row, 01x04, script generated (kicad-library-utils/schlib/autogen/connector/)"))
      (sheetpath (names /) (tstamps /))
      (tstamp 60F127A5))
    (comp (ref J24)
      (value Conn_01x04)
      (footprint 111_my_footprints:grove_4pin_horizontal)
      (datasheet ~)
      (libsource (lib Connector_Generic) (part Conn_01x04) (description "Generic connector, single row, 01x04, script generated (kicad-library-utils/schlib/autogen/connector/)"))
      (sheetpath (names /) (tstamps /))
      (tstamp 60F12797))
    (comp (ref J25)
      (value Conn_01x04)
      (footprint 111_my_footprints:grove_4pin_horizontal)
      (datasheet ~)
      (libsource (lib Connector_Generic) (part Conn_01x04) (description "Generic connector, single row, 01x04, script generated (kicad-library-utils/schlib/autogen/connector/)"))
      (sheetpath (names /) (tstamps /))
      (tstamp 60F12789))
    (comp (ref R23)
      (value R)
      (footprint 111_my_footprints:R_Axial_DIN0207_L6.3mm_D2.5mm_P10.16mm_Horizontal)
      (datasheet ~)
      (libsource (lib Device) (part R) (description Resistor))
      (sheetpath (names /) (tstamps /))
      (tstamp 60EBC7D6))
    (comp (ref R24)
      (value R)
      (footprint 111_my_footprints:R_Axial_DIN0207_L6.3mm_D2.5mm_P10.16mm_Horizontal)
      (datasheet ~)
      (libsource (lib Device) (part R) (description Resistor))
      (sheetpath (names /) (tstamps /))
      (tstamp 60EBC7DC))
    (comp (ref R12)
      (value 330)
      (footprint 111_my_footprints:R_Axial_DIN0207_L6.3mm_D2.5mm_P10.16mm_Horizontal)
      (datasheet ~)
      (libsource (lib Device) (part R) (description Resistor))
      (sheetpath (names /) (tstamps /))
      (tstamp 60F492F0))
    (comp (ref R11)
      (value 2200)
      (footprint 111_my_footprints:R_Axial_DIN0207_L6.3mm_D2.5mm_P10.16mm_Horizontal)
      (datasheet ~)
      (libsource (lib Device) (part R) (description Resistor))
      (sheetpath (names /) (tstamps /))
      (tstamp 60239225))
    (comp (ref D1)
      (value LED)
      (footprint LED_THT:LED_D3.0mm)
      (datasheet ~)
      (libsource (lib Device) (part LED) (description "Light emitting diode"))
      (sheetpath (names /) (tstamps /))
      (tstamp 60238318))
    (comp (ref J3)
      (value Conn_01x02)
      (footprint Connector_PinHeader_2.54mm:PinHeader_1x02_P2.54mm_Horizontal)
      (datasheet ~)
      (libsource (lib Connector_Generic) (part Conn_01x02) (description "Generic connector, single row, 01x02, script generated (kicad-library-utils/schlib/autogen/connector/)"))
      (sheetpath (names /) (tstamps /))
      (tstamp 610D405C))
    (comp (ref J4)
      (value Conn_01x04)
      (footprint Connector_PinHeader_2.54mm:PinHeader_1x04_P2.54mm_Horizontal)
      (datasheet ~)
      (libsource (lib Connector_Generic) (part Conn_01x04) (description "Generic connector, single row, 01x04, script generated (kicad-library-utils/schlib/autogen/connector/)"))
      (sheetpath (names /) (tstamps /))
      (tstamp 610D515C))
    (comp (ref J5)
      (value Conn_01x04)
      (footprint Connector_PinHeader_2.54mm:PinHeader_1x04_P2.54mm_Horizontal)
      (datasheet ~)
      (libsource (lib Connector_Generic) (part Conn_01x04) (description "Generic connector, single row, 01x04, script generated (kicad-library-utils/schlib/autogen/connector/)"))
      (sheetpath (names /) (tstamps /))
      (tstamp 61138CF3))
    (comp (ref J6)
      (value Conn_01x02)
      (footprint Connector_PinHeader_2.54mm:PinHeader_1x02_P2.54mm_Horizontal)
      (datasheet ~)
      (libsource (lib Connector_Generic) (part Conn_01x02) (description "Generic connector, single row, 01x02, script generated (kicad-library-utils/schlib/autogen/connector/)"))
      (sheetpath (names /) (tstamps /))
      (tstamp 61159853))
    (comp (ref R18)
      (value R)
      (footprint Resistor_SMD:R_0805_2012Metric_Pad1.20x1.40mm_HandSolder)
      (datasheet ~)
      (libsource (lib Device) (part R) (description Resistor))
      (sheetpath (names /) (tstamps /))
      (tstamp 610D0B85))
    (comp (ref R13)
      (value R)
      (footprint Resistor_SMD:R_0805_2012Metric_Pad1.20x1.40mm_HandSolder)
      (datasheet ~)
      (libsource (lib Device) (part R) (description Resistor))
      (sheetpath (names /) (tstamps /))
      (tstamp 610DBA61))
    (comp (ref C13)
      (value 100nf)
      (footprint Capacitor_SMD:C_0805_2012Metric_Pad1.18x1.45mm_HandSolder)
      (datasheet ~)
      (libsource (lib Device) (part C_Small) (description "Unpolarized capacitor, small symbol"))
      (sheetpath (names /) (tstamps /))
      (tstamp 6119F636))
    (comp (ref C14)
      (value 5µf)
      (footprint Capacitor_SMD:C_0805_2012Metric_Pad1.18x1.45mm_HandSolder)
      (datasheet ~)
      (libsource (lib Device) (part C_Small) (description "Unpolarized capacitor, small symbol"))
      (sheetpath (names /) (tstamps /))
      (tstamp 611800E2))
    (comp (ref HYT_2)
      (value HYT_939p)
      (footprint 111_my_footprints:HYT_939p)
      (libsource (lib 111_my_symbols) (part HYT_939p) (description ""))
      (sheetpath (names /) (tstamps /))
      (tstamp 613CC6FA))
    (comp (ref R19)
      (value R)
      (footprint Resistor_SMD:R_0805_2012Metric_Pad1.20x1.40mm_HandSolder)
      (datasheet ~)
      (libsource (lib Device) (part R) (description Resistor))
      (sheetpath (names /) (tstamps /))
      (tstamp 613CC701))
    (comp (ref R14)
      (value R)
      (footprint Resistor_SMD:R_0805_2012Metric_Pad1.20x1.40mm_HandSolder)
      (datasheet ~)
      (libsource (lib Device) (part R) (description Resistor))
      (sheetpath (names /) (tstamps /))
      (tstamp 613CC707))
    (comp (ref C15)
      (value 100nf)
      (footprint Capacitor_SMD:C_0805_2012Metric_Pad1.18x1.45mm_HandSolder)
      (datasheet ~)
      (libsource (lib Device) (part C_Small) (description "Unpolarized capacitor, small symbol"))
      (sheetpath (names /) (tstamps /))
      (tstamp 613CC71D))
    (comp (ref C16)
      (value 5µf)
      (footprint Capacitor_SMD:C_0805_2012Metric_Pad1.18x1.45mm_HandSolder)
      (datasheet ~)
      (libsource (lib Device) (part C_Small) (description "Unpolarized capacitor, small symbol"))
      (sheetpath (names /) (tstamps /))
      (tstamp 613CC723))
    (comp (ref HYT_3)
      (value HYT_939p)
      (footprint 111_my_footprints:HYT_939p)
      (libsource (lib 111_my_symbols) (part HYT_939p) (description ""))
      (sheetpath (names /) (tstamps /))
      (tstamp 613F58F2))
    (comp (ref R20)
      (value R)
      (footprint Resistor_SMD:R_0805_2012Metric_Pad1.20x1.40mm_HandSolder)
      (datasheet ~)
      (libsource (lib Device) (part R) (description Resistor))
      (sheetpath (names /) (tstamps /))
      (tstamp 613F58F9))
    (comp (ref R15)
      (value R)
      (footprint Resistor_SMD:R_0805_2012Metric_Pad1.20x1.40mm_HandSolder)
      (datasheet ~)
      (libsource (lib Device) (part R) (description Resistor))
      (sheetpath (names /) (tstamps /))
      (tstamp 613F58FF))
    (comp (ref C17)
      (value 100nf)
      (footprint Capacitor_SMD:C_0805_2012Metric_Pad1.18x1.45mm_HandSolder)
      (datasheet ~)
      (libsource (lib Device) (part C_Small) (description "Unpolarized capacitor, small symbol"))
      (sheetpath (names /) (tstamps /))
      (tstamp 613F5915))
    (comp (ref C18)
      (value 5µf)
      (footprint Capacitor_SMD:C_0805_2012Metric_Pad1.18x1.45mm_HandSolder)
      (datasheet ~)
      (libsource (lib Device) (part C_Small) (description "Unpolarized capacitor, small symbol"))
      (sheetpath (names /) (tstamps /))
      (tstamp 613F591B))
    (comp (ref HYT_4)
      (value HYT_939p)
      (footprint 111_my_footprints:HYT_939p)
      (libsource (lib 111_my_symbols) (part HYT_939p) (description ""))
      (sheetpath (names /) (tstamps /))
      (tstamp 613F5929))
    (comp (ref R21)
      (value R)
      (footprint Resistor_SMD:R_0805_2012Metric_Pad1.20x1.40mm_HandSolder)
      (datasheet ~)
      (libsource (lib Device) (part R) (description Resistor))
      (sheetpath (names /) (tstamps /))
      (tstamp 613F5930))
    (comp (ref R16)
      (value R)
      (footprint Resistor_SMD:R_0805_2012Metric_Pad1.20x1.40mm_HandSolder)
      (datasheet ~)
      (libsource (lib Device) (part R) (description Resistor))
      (sheetpath (names /) (tstamps /))
      (tstamp 613F5936))
    (comp (ref C19)
      (value 100nf)
      (footprint Capacitor_SMD:C_0805_2012Metric_Pad1.18x1.45mm_HandSolder)
      (datasheet ~)
      (libsource (lib Device) (part C_Small) (description "Unpolarized capacitor, small symbol"))
      (sheetpath (names /) (tstamps /))
      (tstamp 613F594C))
    (comp (ref C20)
      (value 5µf)
      (footprint Capacitor_SMD:C_0805_2012Metric_Pad1.18x1.45mm_HandSolder)
      (datasheet ~)
      (libsource (lib Device) (part C_Small) (description "Unpolarized capacitor, small symbol"))
      (sheetpath (names /) (tstamps /))
      (tstamp 613F5952))
    (comp (ref HYT_5)
      (value HYT_939p)
      (footprint 111_my_footprints:HYT_939p)
      (libsource (lib 111_my_symbols) (part HYT_939p) (description ""))
      (sheetpath (names /) (tstamps /))
      (tstamp 6143E3D2))
    (comp (ref R22)
      (value R)
      (footprint Resistor_SMD:R_0805_2012Metric_Pad1.20x1.40mm_HandSolder)
      (datasheet ~)
      (libsource (lib Device) (part R) (description Resistor))
      (sheetpath (names /) (tstamps /))
      (tstamp 6143E3D9))
    (comp (ref R17)
      (value R)
      (footprint Resistor_SMD:R_0805_2012Metric_Pad1.20x1.40mm_HandSolder)
      (datasheet ~)
      (libsource (lib Device) (part R) (description Resistor))
      (sheetpath (names /) (tstamps /))
      (tstamp 6143E3DF))
    (comp (ref C21)
      (value 100nf)
      (footprint Capacitor_SMD:C_0805_2012Metric_Pad1.18x1.45mm_HandSolder)
      (datasheet ~)
      (libsource (lib Device) (part C_Small) (description "Unpolarized capacitor, small symbol"))
      (sheetpath (names /) (tstamps /))
      (tstamp 6143E3F5))
    (comp (ref C22)
      (value 5µf)
      (footprint Capacitor_SMD:C_0805_2012Metric_Pad1.18x1.45mm_HandSolder)
      (datasheet ~)
      (libsource (lib Device) (part C_Small) (description "Unpolarized capacitor, small symbol"))
      (sheetpath (names /) (tstamps /))
      (tstamp 6143E3FB))
    (comp (ref D2)
      (value D)
      (footprint Diode_THT:D_A-405_P7.62mm_Horizontal)
      (datasheet ~)
      (libsource (lib Device) (part D) (description Diode))
      (sheetpath (names /) (tstamps /))
      (tstamp 6144BA3F)))
  (libparts
    (libpart (lib 111_my_symbols) (part HYT_939p)
      (fields
        (field (name Reference) U)
        (field (name Value) HYT_939p))
      (pins
        (pin (num 1) (name SCL) (type input))
        (pin (num 2) (name VCC) (type input))
        (pin (num 3) (name GND) (type input))
        (pin (num 4) (name SDA) (type input))))
    (libpart (lib 111_my_symbols) (part Q_NPN_Darlington_BCE)
      (description "NPN Darlington transistor, base/collector/emitter")
      (docs ~)
      (fields
        (field (name Reference) Q)
        (field (name Value) Q_NPN_Darlington_BCE))
      (pins
        (pin (num 1) (name B) (type input))
        (pin (num 2) (name C) (type passive))
        (pin (num 3) (name E) (type passive))
        (pin (num 4) (name Heat_sink) (type input))))
    (libpart (lib Connector) (part Conn_01x06_Female)
      (footprints
        (fp Connector*:*_1x??_*))
      (fields
        (field (name Reference) J)
        (field (name Value) Conn_01x06_Female))
      (pins
        (pin (num 1) (name Pin_1) (type passive))
        (pin (num 2) (name Pin_2) (type passive))
        (pin (num 3) (name Pin_3) (type passive))
        (pin (num 4) (name Pin_4) (type passive))
        (pin (num 5) (name Pin_5) (type passive))
        (pin (num 6) (name Pin_6) (type passive))))
    (libpart (lib Connector) (part DB37_Female_MountingHoles)
      (footprints
        (fp DSUB*Female*))
      (fields
        (field (name Reference) J)
        (field (name Value) DB37_Female_MountingHoles))
      (pins
        (pin (num 0) (name PAD) (type passive))
        (pin (num 1) (name 1) (type passive))
        (pin (num 2) (name 2) (type passive))
        (pin (num 3) (name 3) (type passive))
        (pin (num 4) (name 4) (type passive))
        (pin (num 5) (name 5) (type passive))
        (pin (num 6) (name 6) (type passive))
        (pin (num 7) (name 7) (type passive))
        (pin (num 8) (name 8) (type passive))
        (pin (num 9) (name 9) (type passive))
        (pin (num 10) (name 10) (type passive))
        (pin (num 11) (name 11) (type passive))
        (pin (num 12) (name 12) (type passive))
        (pin (num 13) (name 13) (type passive))
        (pin (num 14) (name 14) (type passive))
        (pin (num 15) (name 15) (type passive))
        (pin (num 16) (name 16) (type passive))
        (pin (num 17) (name 17) (type passive))
        (pin (num 18) (name 18) (type passive))
        (pin (num 19) (name 19) (type passive))
        (pin (num 20) (name 20) (type passive))
        (pin (num 21) (name 21) (type passive))
        (pin (num 22) (name 22) (type passive))
        (pin (num 23) (name 23) (type passive))
        (pin (num 24) (name 24) (type passive))
        (pin (num 25) (name 25) (type passive))
        (pin (num 26) (name 26) (type passive))
        (pin (num 27) (name 27) (type passive))
        (pin (num 28) (name 28) (type passive))
        (pin (num 29) (name 29) (type passive))
        (pin (num 30) (name 30) (type passive))
        (pin (num 31) (name 31) (type passive))
        (pin (num 32) (name 32) (type passive))
        (pin (num 33) (name 33) (type passive))
        (pin (num 34) (name 34) (type passive))
        (pin (num 35) (name 35) (type passive))
        (pin (num 36) (name 36) (type passive))
        (pin (num 37) (name 37) (type passive))))
    (libpart (lib Connector) (part DB37_Male_MountingHoles)
      (footprints
        (fp DSUB*Male*))
      (fields
        (field (name Reference) J)
        (field (name Value) DB37_Male_MountingHoles))
      (pins
        (pin (num 0) (name PAD) (type passive))
        (pin (num 1) (name 1) (type passive))
        (pin (num 2) (name 2) (type passive))
        (pin (num 3) (name 3) (type passive))
        (pin (num 4) (name 4) (type passive))
        (pin (num 5) (name 5) (type passive))
        (pin (num 6) (name 6) (type passive))
        (pin (num 7) (name 7) (type passive))
        (pin (num 8) (name 8) (type passive))
        (pin (num 9) (name 9) (type passive))
        (pin (num 10) (name 10) (type passive))
        (pin (num 11) (name 11) (type passive))
        (pin (num 12) (name 12) (type passive))
        (pin (num 13) (name 13) (type passive))
        (pin (num 14) (name 14) (type passive))
        (pin (num 15) (name 15) (type passive))
        (pin (num 16) (name 16) (type passive))
        (pin (num 17) (name 17) (type passive))
        (pin (num 18) (name 18) (type passive))
        (pin (num 19) (name 19) (type passive))
        (pin (num 20) (name 20) (type passive))
        (pin (num 21) (name 21) (type passive))
        (pin (num 22) (name 22) (type passive))
        (pin (num 23) (name 23) (type passive))
        (pin (num 24) (name 24) (type passive))
        (pin (num 25) (name 25) (type passive))
        (pin (num 26) (name 26) (type passive))
        (pin (num 27) (name 27) (type passive))
        (pin (num 28) (name 28) (type passive))
        (pin (num 29) (name 29) (type passive))
        (pin (num 30) (name 30) (type passive))
        (pin (num 31) (name 31) (type passive))
        (pin (num 32) (name 32) (type passive))
        (pin (num 33) (name 33) (type passive))
        (pin (num 34) (name 34) (type passive))
        (pin (num 35) (name 35) (type passive))
        (pin (num 36) (name 36) (type passive))
        (pin (num 37) (name 37) (type passive))))
    (libpart (lib Connector_Generic) (part Conn_01x02)
      (description "Generic connector, single row, 01x02, script generated (kicad-library-utils/schlib/autogen/connector/)")
      (docs ~)
      (footprints
        (fp Connector*:*_1x??_*))
      (fields
        (field (name Reference) J)
        (field (name Value) Conn_01x02))
      (pins
        (pin (num 1) (name Pin_1) (type passive))
        (pin (num 2) (name Pin_2) (type passive))))
    (libpart (lib Connector_Generic) (part Conn_01x04)
      (description "Generic connector, single row, 01x04, script generated (kicad-library-utils/schlib/autogen/connector/)")
      (docs ~)
      (footprints
        (fp Connector*:*_1x??_*))
      (fields
        (field (name Reference) J)
        (field (name Value) Conn_01x04))
      (pins
        (pin (num 1) (name Pin_1) (type passive))
        (pin (num 2) (name Pin_2) (type passive))
        (pin (num 3) (name Pin_3) (type passive))
        (pin (num 4) (name Pin_4) (type passive))))
    (libpart (lib Connector_Generic) (part Conn_01x18)
      (description "Generic connector, single row, 01x18, script generated (kicad-library-utils/schlib/autogen/connector/)")
      (docs ~)
      (footprints
        (fp Connector*:*_1x??_*))
      (fields
        (field (name Reference) J)
        (field (name Value) Conn_01x18))
      (pins
        (pin (num 1) (name Pin_1) (type passive))
        (pin (num 2) (name Pin_2) (type passive))
        (pin (num 3) (name Pin_3) (type passive))
        (pin (num 4) (name Pin_4) (type passive))
        (pin (num 5) (name Pin_5) (type passive))
        (pin (num 6) (name Pin_6) (type passive))
        (pin (num 7) (name Pin_7) (type passive))
        (pin (num 8) (name Pin_8) (type passive))
        (pin (num 9) (name Pin_9) (type passive))
        (pin (num 10) (name Pin_10) (type passive))
        (pin (num 11) (name Pin_11) (type passive))
        (pin (num 12) (name Pin_12) (type passive))
        (pin (num 13) (name Pin_13) (type passive))
        (pin (num 14) (name Pin_14) (type passive))
        (pin (num 15) (name Pin_15) (type passive))
        (pin (num 16) (name Pin_16) (type passive))
        (pin (num 17) (name Pin_17) (type passive))
        (pin (num 18) (name Pin_18) (type passive))))
    (libpart (lib Connector_Generic) (part Conn_02x20_Odd_Even)
      (description "Generic connector, double row, 02x20, odd/even pin numbering scheme (row 1 odd numbers, row 2 even numbers), script generated (kicad-library-utils/schlib/autogen/connector/)")
      (docs ~)
      (footprints
        (fp Connector*:*_2x??_*))
      (fields
        (field (name Reference) J)
        (field (name Value) Conn_02x20_Odd_Even))
      (pins
        (pin (num 1) (name Pin_1) (type passive))
        (pin (num 2) (name Pin_2) (type passive))
        (pin (num 3) (name Pin_3) (type passive))
        (pin (num 4) (name Pin_4) (type passive))
        (pin (num 5) (name Pin_5) (type passive))
        (pin (num 6) (name Pin_6) (type passive))
        (pin (num 7) (name Pin_7) (type passive))
        (pin (num 8) (name Pin_8) (type passive))
        (pin (num 9) (name Pin_9) (type passive))
        (pin (num 10) (name Pin_10) (type passive))
        (pin (num 11) (name Pin_11) (type passive))
        (pin (num 12) (name Pin_12) (type passive))
        (pin (num 13) (name Pin_13) (type passive))
        (pin (num 14) (name Pin_14) (type passive))
        (pin (num 15) (name Pin_15) (type passive))
        (pin (num 16) (name Pin_16) (type passive))
        (pin (num 17) (name Pin_17) (type passive))
        (pin (num 18) (name Pin_18) (type passive))
        (pin (num 19) (name Pin_19) (type passive))
        (pin (num 20) (name Pin_20) (type passive))
        (pin (num 21) (name Pin_21) (type passive))
        (pin (num 22) (name Pin_22) (type passive))
        (pin (num 23) (name Pin_23) (type passive))
        (pin (num 24) (name Pin_24) (type passive))
        (pin (num 25) (name Pin_25) (type passive))
        (pin (num 26) (name Pin_26) (type passive))
        (pin (num 27) (name Pin_27) (type passive))
        (pin (num 28) (name Pin_28) (type passive))
        (pin (num 29) (name Pin_29) (type passive))
        (pin (num 30) (name Pin_30) (type passive))
        (pin (num 31) (name Pin_31) (type passive))
        (pin (num 32) (name Pin_32) (type passive))
        (pin (num 33) (name Pin_33) (type passive))
        (pin (num 34) (name Pin_34) (type passive))
        (pin (num 35) (name Pin_35) (type passive))
        (pin (num 36) (name Pin_36) (type passive))
        (pin (num 37) (name Pin_37) (type passive))
        (pin (num 38) (name Pin_38) (type passive))
        (pin (num 39) (name Pin_39) (type passive))
        (pin (num 40) (name Pin_40) (type passive))))
    (libpart (lib Device) (part C)
      (description "Unpolarized capacitor")
      (docs ~)
      (footprints
        (fp C_*))
      (fields
        (field (name Reference) C)
        (field (name Value) C))
      (pins
        (pin (num 1) (name ~) (type passive))
        (pin (num 2) (name ~) (type passive))))
    (libpart (lib Device) (part CP)
      (description "Polarized capacitor")
      (docs ~)
      (footprints
        (fp CP_*))
      (fields
        (field (name Reference) C)
        (field (name Value) CP))
      (pins
        (pin (num 1) (name ~) (type passive))
        (pin (num 2) (name ~) (type passive))))
    (libpart (lib Device) (part C_Small)
      (description "Unpolarized capacitor, small symbol")
      (docs ~)
      (footprints
        (fp C_*))
      (fields
        (field (name Reference) C)
        (field (name Value) C_Small))
      (pins
        (pin (num 1) (name ~) (type passive))
        (pin (num 2) (name ~) (type passive))))
    (libpart (lib Device) (part D)
      (description Diode)
      (docs ~)
      (footprints
        (fp TO-???*)
        (fp *_Diode_*)
        (fp *SingleDiode*)
        (fp D_*))
      (fields
        (field (name Reference) D)
        (field (name Value) D))
      (pins
        (pin (num 1) (name K) (type passive))
        (pin (num 2) (name A) (type passive))))
    (libpart (lib Device) (part LED)
      (description "Light emitting diode")
      (docs ~)
      (footprints
        (fp LED*)
        (fp LED_SMD:*)
        (fp LED_THT:*))
      (fields
        (field (name Reference) D)
        (field (name Value) LED))
      (pins
        (pin (num 1) (name K) (type passive))
        (pin (num 2) (name A) (type passive))))
    (libpart (lib Device) (part R)
      (description Resistor)
      (docs ~)
      (footprints
        (fp R_*))
      (fields
        (field (name Reference) R)
        (field (name Value) R))
      (pins
        (pin (num 1) (name ~) (type passive))
        (pin (num 2) (name ~) (type passive))))
    (libpart (lib phoenix) (part 1757475)
      (footprints
        (fp CONN_1754436_PXC))
      (fields
        (field (name Reference) J)
        (field (name Value) 1757475)
        (field (name Footprint) CONN_1754436_PXC))
      (pins
        (pin (num 1) (name 1) (type unspc))
        (pin (num 2) (name 2) (type unspc)))))
  (libraries
    (library (logical 111_my_symbols)
      (uri /home/pekman/itk/pcb/pitk_hat/111_my_symbols.lib))
    (library (logical Connector)
      (uri /home/pekman/itk/pcb2/pitk_hat/Connector.lib))
    (library (logical Connector_Generic)
      (uri /usr/share/kicad/library/Connector_Generic.lib))
    (library (logical Device)
      (uri /usr/share/kicad/library/Device.lib))
    (library (logical phoenix)
      (uri /home/pekman/itk/pcb2/pitk_hat/phoenix.lib)))
  (nets
    (net (code 1) (name "/GPIO3(SCL1)")
      (node (ref R14) (pin 2))
      (node (ref J25) (pin 4))
      (node (ref J8) (pin 16))
      (node (ref J22) (pin 4))
      (node (ref J23) (pin 4))
      (node (ref R24) (pin 2))
      (node (ref J14) (pin 4))
      (node (ref J18) (pin 4))
      (node (ref HYT_4) (pin 1))
      (node (ref J21) (pin 4))
      (node (ref R16) (pin 2))
      (node (ref HYT_5) (pin 1))
      (node (ref R17) (pin 2))
      (node (ref HYT_3) (pin 1))
      (node (ref J10) (pin 16))
      (node (ref HYT_1) (pin 1))
      (node (ref J24) (pin 4))
      (node (ref J16) (pin 4))
      (node (ref P1) (pin 5))
      (node (ref J11) (pin 4))
      (node (ref J20) (pin 4))
      (node (ref R15) (pin 2))
      (node (ref HYT_2) (pin 1))
      (node (ref J13) (pin 4))
      (node (ref J19) (pin 4))
      (node (ref J12) (pin 4))
      (node (ref J15) (pin 4))
      (node (ref R13) (pin 2))
      (node (ref J17) (pin 4)))
    (net (code 2) (name "/GPIO2(SDA1)")
      (node (ref HYT_1) (pin 4))
      (node (ref HYT_3) (pin 4))
      (node (ref R20) (pin 2))
      (node (ref P1) (pin 3))
      (node (ref J17) (pin 3))
      (node (ref J19) (pin 3))
      (node (ref J16) (pin 3))
      (node (ref J8) (pin 17))
      (node (ref R19) (pin 2))
      (node (ref HYT_4) (pin 4))
      (node (ref J10) (pin 17))
      (node (ref J20) (pin 3))
      (node (ref R21) (pin 2))
      (node (ref J18) (pin 3))
      (node (ref R22) (pin 2))
      (node (ref J15) (pin 3))
      (node (ref R18) (pin 2))
      (node (ref J24) (pin 3))
      (node (ref J25) (pin 3))
      (node (ref J23) (pin 3))
      (node (ref J21) (pin 3))
      (node (ref J14) (pin 3))
      (node (ref J22) (pin 3))
      (node (ref R23) (pin 2))
      (node (ref HYT_5) (pin 4))
      (node (ref J13) (pin 3))
      (node (ref J11) (pin 3))
      (node (ref J12) (pin 3))
      (node (ref HYT_2) (pin 4)))
    (net (code 3) (name /5p1V)
      (node (ref R15) (pin 1))
      (node (ref C13) (pin 1))
      (node (ref HYT_2) (pin 2))
      (node (ref R20) (pin 1))
      (node (ref J3) (pin 1))
      (node (ref R24) (pin 1))
      (node (ref C14) (pin 1))
      (node (ref C17) (pin 1))
      (node (ref C18) (pin 1))
      (node (ref R13) (pin 1))
      (node (ref R18) (pin 1))
      (node (ref HYT_3) (pin 2))
      (node (ref R22) (pin 1))
      (node (ref HYT_5) (pin 2))
      (node (ref C21) (pin 1))
      (node (ref C22) (pin 1))
      (node (ref R17) (pin 1))
      (node (ref R3) (pin 2))
      (node (ref R16) (pin 1))
      (node (ref C20) (pin 1))
      (node (ref C19) (pin 1))
      (node (ref R23) (pin 1))
      (node (ref R21) (pin 1))
      (node (ref R19) (pin 1))
      (node (ref R14) (pin 1))
      (node (ref J25) (pin 2))
      (node (ref C15) (pin 1))
      (node (ref HYT_4) (pin 2))
      (node (ref C16) (pin 1))
      (node (ref R2) (pin 2))
      (node (ref R1) (pin 2))
      (node (ref C12) (pin 2))
      (node (ref HYT_1) (pin 2))
      (node (ref R4) (pin 2))
      (node (ref J8) (pin 36))
      (node (ref J15) (pin 2))
      (node (ref J9) (pin 17))
      (node (ref J10) (pin 36))
      (node (ref J11) (pin 2))
      (node (ref J10) (pin 19))
      (node (ref J21) (pin 2))
      (node (ref R9) (pin 2))
      (node (ref J23) (pin 2))
      (node (ref J22) (pin 2))
      (node (ref R5) (pin 2))
      (node (ref R8) (pin 2))
      (node (ref R7) (pin 2))
      (node (ref J14) (pin 2))
      (node (ref J16) (pin 2))
      (node (ref J24) (pin 2))
      (node (ref R6) (pin 2))
      (node (ref C11) (pin 1))
      (node (ref J20) (pin 2))
      (node (ref J13) (pin 2))
      (node (ref J19) (pin 2))
      (node (ref J8) (pin 19))
      (node (ref J17) (pin 2))
      (node (ref J18) (pin 2))
      (node (ref J12) (pin 2))
      (node (ref R10) (pin 2)))
    (net (code 4) (name "Net-(Q1-Pad1)")
      (node (ref R12) (pin 1))
      (node (ref Q1) (pin 1)))
    (net (code 5) (name "Net-(Q1-Pad4)")
      (node (ref Q1) (pin 4)))
    (net (code 6) (name GND)
      (node (ref NTC10) (pin 1))
      (node (ref C1) (pin 1))
      (node (ref C6) (pin 1))
      (node (ref NTC9) (pin 1))
      (node (ref J9) (pin 16))
      (node (ref NTC1) (pin 1))
      (node (ref C12) (pin 1))
      (node (ref C10) (pin 1))
      (node (ref J3) (pin 2))
      (node (ref NTC2) (pin 1))
      (node (ref J7) (pin 1))
      (node (ref J1) (pin 2))
      (node (ref P1) (pin 30))
      (node (ref C8) (pin 1))
      (node (ref P1) (pin 25))
      (node (ref P1) (pin 6))
      (node (ref J13) (pin 1))
      (node (ref P1) (pin 39))
      (node (ref P1) (pin 34))
      (node (ref C11) (pin 2))
      (node (ref P1) (pin 20))
      (node (ref J10) (pin 0))
      (node (ref J10) (pin 11))
      (node (ref J10) (pin 12))
      (node (ref J10) (pin 13))
      (node (ref J10) (pin 14))
      (node (ref J10) (pin 15))
      (node (ref J10) (pin 18))
      (node (ref C4) (pin 1))
      (node (ref NTC5) (pin 1))
      (node (ref C3) (pin 1))
      (node (ref P1) (pin 9))
      (node (ref NTC4) (pin 1))
      (node (ref NTC3) (pin 1))
      (node (ref C5) (pin 1))
      (node (ref P1) (pin 14))
      (node (ref C7) (pin 1))
      (node (ref C2) (pin 1))
      (node (ref NTC8) (pin 1))
      (node (ref NTC7) (pin 1))
      (node (ref NTC6) (pin 1))
      (node (ref C9) (pin 1))
      (node (ref J18) (pin 1))
      (node (ref J15) (pin 1))
      (node (ref J8) (pin 18))
      (node (ref J8) (pin 15))
      (node (ref HYT_3) (pin 3))
      (node (ref J23) (pin 1))
      (node (ref C15) (pin 2))
      (node (ref HYT_4) (pin 3))
      (node (ref J25) (pin 1))
      (node (ref Q1) (pin 3))
      (node (ref C20) (pin 2))
      (node (ref J14) (pin 1))
      (node (ref HYT_5) (pin 3))
      (node (ref C16) (pin 2))
      (node (ref C19) (pin 2))
      (node (ref J21) (pin 1))
      (node (ref J17) (pin 1))
      (node (ref HYT_2) (pin 3))
      (node (ref J8) (pin 14))
      (node (ref HYT_1) (pin 3))
      (node (ref J8) (pin 0))
      (node (ref C22) (pin 2))
      (node (ref C18) (pin 2))
      (node (ref J24) (pin 1))
      (node (ref C21) (pin 2))
      (node (ref J16) (pin 1))
      (node (ref J10) (pin 35))
      (node (ref J8) (pin 11))
      (node (ref J12) (pin 1))
      (node (ref J11) (pin 1))
      (node (ref J22) (pin 1))
      (node (ref J8) (pin 13))
      (node (ref J8) (pin 12))
      (node (ref J8) (pin 35))
      (node (ref J19) (pin 1))
      (node (ref C17) (pin 2))
      (node (ref J20) (pin 1))
      (node (ref C13) (pin 2))
      (node (ref C14) (pin 2)))
    (net (code 7) (name "/GPIO20(SPI1_MOSI)")
      (node (ref P1) (pin 38))
      (node (ref J7) (pin 4)))
    (net (code 8) (name "/GPIO12(PWM0)")
      (node (ref P1) (pin 32)))
    (net (code 9) (name "Net-(J8-Pad23)")
      (node (ref J8) (pin 23))
      (node (ref J9) (pin 4)))
    (net (code 10) (name "Net-(J8-Pad24)")
      (node (ref J8) (pin 24))
      (node (ref J9) (pin 5)))
    (net (code 11) (name "Net-(J8-Pad26)")
      (node (ref J8) (pin 26))
      (node (ref J9) (pin 7)))
    (net (code 12) (name "Net-(J8-Pad28)")
      (node (ref J9) (pin 9))
      (node (ref J8) (pin 28)))
    (net (code 13) (name "Net-(J8-Pad30)")
      (node (ref J9) (pin 11))
      (node (ref J8) (pin 30)))
    (net (code 14) (name "Net-(J8-Pad32)")
      (node (ref J8) (pin 32))
      (node (ref J9) (pin 13)))
    (net (code 15) (name "Net-(J8-Pad34)")
      (node (ref J8) (pin 34))
      (node (ref J9) (pin 15)))
    (net (code 16) (name "Net-(J8-Pad22)")
      (node (ref J9) (pin 3))
      (node (ref J8) (pin 22)))
    (net (code 17) (name "Net-(J8-Pad5)")
      (node (ref NTC5) (pin 2))
      (node (ref J8) (pin 5)))
    (net (code 18) (name "Net-(J8-Pad8)")
      (node (ref J8) (pin 8))
      (node (ref NTC8) (pin 2)))
    (net (code 19) (name "Net-(J10-Pad30)")
      (node (ref J10) (pin 30)))
    (net (code 20) (name "Net-(J10-Pad31)")
      (node (ref J10) (pin 31)))
    (net (code 21) (name "Net-(J10-Pad32)")
      (node (ref J10) (pin 32)))
    (net (code 22) (name "Net-(J10-Pad33)")
      (node (ref J10) (pin 33)))
    (net (code 23) (name "Net-(J10-Pad34)")
      (node (ref J10) (pin 34)))
    (net (code 24) (name "Net-(J8-Pad20)")
      (node (ref J9) (pin 1))
      (node (ref J8) (pin 20)))
    (net (code 25) (name "Net-(D1-Pad1)")
      (node (ref J2) (pin 1))
      (node (ref D1) (pin 1))
      (node (ref Q1) (pin 2))
      (node (ref D2) (pin 2)))
    (net (code 26) (name "Net-(D1-Pad2)")
      (node (ref D1) (pin 2))
      (node (ref R11) (pin 1)))
    (net (code 27) (name /24V)
      (node (ref J2) (pin 2))
      (node (ref J1) (pin 1))
      (node (ref J7) (pin 2))
      (node (ref R11) (pin 2))
      (node (ref D2) (pin 1)))
    (net (code 28) (name /NTC1)
      (node (ref C1) (pin 2))
      (node (ref R1) (pin 1))
      (node (ref J6) (pin 2))
      (node (ref J10) (pin 1)))
    (net (code 29) (name /NTC3)
      (node (ref J10) (pin 3))
      (node (ref R3) (pin 1))
      (node (ref J5) (pin 4))
      (node (ref C3) (pin 2)))
    (net (code 30) (name /NTC2)
      (node (ref J10) (pin 2))
      (node (ref C2) (pin 2))
      (node (ref J6) (pin 1))
      (node (ref R2) (pin 1)))
    (net (code 31) (name /NTC4)
      (node (ref J10) (pin 4))
      (node (ref C4) (pin 2))
      (node (ref R4) (pin 1))
      (node (ref J5) (pin 3)))
    (net (code 32) (name /NTC5)
      (node (ref C5) (pin 2))
      (node (ref J5) (pin 2))
      (node (ref J10) (pin 5))
      (node (ref R5) (pin 1)))
    (net (code 33) (name /NTC6)
      (node (ref C6) (pin 2))
      (node (ref R6) (pin 1))
      (node (ref J5) (pin 1))
      (node (ref J10) (pin 6)))
    (net (code 34) (name /NTC7)
      (node (ref J4) (pin 4))
      (node (ref C7) (pin 2))
      (node (ref R7) (pin 1))
      (node (ref J10) (pin 7)))
    (net (code 35) (name /NTC8)
      (node (ref J4) (pin 3))
      (node (ref J10) (pin 8))
      (node (ref R8) (pin 1))
      (node (ref C8) (pin 2)))
    (net (code 36) (name /NTC9)
      (node (ref C9) (pin 2))
      (node (ref R9) (pin 1))
      (node (ref J10) (pin 9))
      (node (ref J4) (pin 2)))
    (net (code 37) (name /NTC10)
      (node (ref J10) (pin 10))
      (node (ref J4) (pin 1))
      (node (ref R10) (pin 1))
      (node (ref C10) (pin 2)))
    (net (code 38) (name "/GPIO9(SPI0_MISO)")
      (node (ref P1) (pin 21)))
    (net (code 39) (name /GPIO5)
      (node (ref P1) (pin 29)))
    (net (code 40) (name "Net-(J8-Pad1)")
      (node (ref J8) (pin 1))
      (node (ref NTC1) (pin 2)))
    (net (code 41) (name "Net-(J8-Pad2)")
      (node (ref J8) (pin 2))
      (node (ref NTC2) (pin 2)))
    (net (code 42) (name +5V)
      (node (ref P1) (pin 4))
      (node (ref P1) (pin 2)))
    (net (code 43) (name "Net-(J8-Pad9)")
      (node (ref NTC9) (pin 2))
      (node (ref J8) (pin 9)))
    (net (code 44) (name "Net-(J8-Pad10)")
      (node (ref J8) (pin 10))
      (node (ref NTC10) (pin 2)))
    (net (code 45) (name "Net-(J8-Pad3)")
      (node (ref J8) (pin 3))
      (node (ref NTC3) (pin 2)))
    (net (code 46) (name "Net-(J8-Pad4)")
      (node (ref J8) (pin 4))
      (node (ref NTC4) (pin 2)))
    (net (code 47) (name "Net-(J8-Pad6)")
      (node (ref J8) (pin 6))
      (node (ref NTC6) (pin 2)))
    (net (code 48) (name "Net-(J8-Pad7)")
      (node (ref NTC7) (pin 2))
      (node (ref J8) (pin 7)))
    (net (code 49) (name "/GPIO15(RXD0)")
      (node (ref P1) (pin 10)))
    (net (code 50) (name "/GPIO18(GEN1)(PWM0)")
      (node (ref P1) (pin 12)))
    (net (code 51) (name "/GPIO23(GEN4)")
      (node (ref P1) (pin 16)))
    (net (code 52) (name "/GPIO24(GEN5)")
      (node (ref P1) (pin 18)))
    (net (code 53) (name "/GPIO25(GEN6)")
      (node (ref P1) (pin 22)))
    (net (code 54) (name "/GPIO8(SPI0_CE_N)")
      (node (ref P1) (pin 24)))
    (net (code 55) (name "/GPIO7(SPI1_CE_N)")
      (node (ref P1) (pin 26)))
    (net (code 56) (name /ID_SC)
      (node (ref P1) (pin 28)))
    (net (code 57) (name "/GPIO21(SPI1_SCK)")
      (node (ref J7) (pin 6))
      (node (ref P1) (pin 40)))
    (net (code 58) (name /ID_SD)
      (node (ref P1) (pin 27)))
    (net (code 59) (name "/GPIO11(SPI0_SCK)")
      (node (ref P1) (pin 23)))
    (net (code 60) (name "/GPIO10(SPI0_MOSI)")
      (node (ref P1) (pin 19)))
    (net (code 61) (name "/GPIO22(GEN3)")
      (node (ref P1) (pin 15)))
    (net (code 62) (name "/GPIO27(GEN2)")
      (node (ref P1) (pin 13)))
    (net (code 63) (name "/GPIO17(GEN0)")
      (node (ref P1) (pin 11)))
    (net (code 64) (name "/GPIO4(GCLK)")
      (node (ref P1) (pin 7)))
    (net (code 65) (name "/GPIO14(TXD0)")
      (node (ref P1) (pin 8)))
    (net (code 66) (name /GPIO6)
      (node (ref P1) (pin 31)))
    (net (code 67) (name /GPIO16)
      (node (ref P1) (pin 36))
      (node (ref J7) (pin 3)))
    (net (code 68) (name /GPIO26)
      (node (ref P1) (pin 37))
      (node (ref J7) (pin 5)))
    (net (code 69) (name "/GPIO19(SPI1_MISO)")
      (node (ref P1) (pin 35)))
    (net (code 70) (name /BYPASS_ON)
      (node (ref R12) (pin 2))
      (node (ref P1) (pin 33)))
    (net (code 71) (name "Net-(J8-Pad21)")
      (node (ref J9) (pin 2))
      (node (ref J8) (pin 21)))
    (net (code 72) (name "Net-(J8-Pad25)")
      (node (ref J8) (pin 25))
      (node (ref J9) (pin 6)))
    (net (code 73) (name "Net-(J8-Pad29)")
      (node (ref J9) (pin 10))
      (node (ref J8) (pin 29)))
    (net (code 74) (name "Net-(J8-Pad31)")
      (node (ref J9) (pin 12))
      (node (ref J8) (pin 31)))
    (net (code 75) (name "Net-(J8-Pad33)")
      (node (ref J8) (pin 33))
      (node (ref J9) (pin 14)))
    (net (code 76) (name +3V3)
      (node (ref P1) (pin 17))
      (node (ref J8) (pin 37))
      (node (ref P1) (pin 1))
      (node (ref J10) (pin 37))
      (node (ref J9) (pin 18)))
    (net (code 77) (name "Net-(J8-Pad27)")
      (node (ref J9) (pin 8))
      (node (ref J8) (pin 27)))
    (net (code 78) (name "Net-(J10-Pad20)")
      (node (ref J10) (pin 20)))
    (net (code 79) (name "Net-(J10-Pad21)")
      (node (ref J10) (pin 21)))
    (net (code 80) (name "Net-(J10-Pad22)")
      (node (ref J10) (pin 22)))
    (net (code 81) (name "Net-(J10-Pad23)")
      (node (ref J10) (pin 23)))
    (net (code 82) (name "Net-(J10-Pad24)")
      (node (ref J10) (pin 24)))
    (net (code 83) (name "Net-(J10-Pad25)")
      (node (ref J10) (pin 25)))
    (net (code 84) (name "Net-(J10-Pad26)")
      (node (ref J10) (pin 26)))
    (net (code 85) (name "Net-(J10-Pad27)")
      (node (ref J10) (pin 27)))
    (net (code 86) (name "Net-(J10-Pad28)")
      (node (ref J10) (pin 28)))
    (net (code 87) (name "Net-(J10-Pad29)")
      (node (ref J10) (pin 29)))))