M48
; DRILL file {KiCad 5.1.12-84ad8e8a86~92~ubuntu18.04.1} date fre  6 maj 2022 08:46:50
; FORMAT={-:-/ absolute / metric / decimal}
; #@! TF.CreationDate,2022-05-06T08:46:50+02:00
; #@! TF.GenerationSoftware,Kicad,Pcbnew,5.1.12-84ad8e8a86~92~ubuntu18.04.1
FMAT,2
METRIC
T1C0.740
T2C0.750
T3C0.800
T4C0.850
T5C0.900
T6C1.000
T7C1.020
T8C1.370
T9C1.500
T10C3.050
T11C3.200
T12C0.500
T13C3.400
T14C3.500
%
G90
G05
T1
X309.5Y-79.5
X309.5Y-90.5
X309.5Y-101.5
X309.5Y-120.5
X309.5Y-139.5
T2
X305.5Y-79.5
X305.5Y-90.5
X305.5Y-101.5
X305.5Y-120.5
X305.5Y-139.5
X307.5Y-79.5
X307.5Y-90.5
X307.5Y-101.5
X307.5Y-120.5
X307.5Y-139.5
X311.5Y-79.5
X311.5Y-90.5
X311.5Y-101.5
X311.5Y-120.5
X311.5Y-139.5
X350.0Y-78.0
X350.0Y-80.0
X350.0Y-82.0
X350.0Y-84.0
X350.0Y-93.0
X350.0Y-95.0
X350.0Y-97.0
X350.0Y-99.0
X350.0Y-108.0
X350.0Y-110.0
X350.0Y-112.0
X350.0Y-114.0
X350.0Y-123.0
X350.0Y-125.0
X350.0Y-127.0
X350.0Y-129.0
X350.0Y-138.0
X350.0Y-140.0
X350.0Y-142.0
X350.0Y-144.0
X362.5Y-78.0
X362.5Y-80.0
X362.5Y-82.0
X362.5Y-84.0
X362.5Y-93.0
X362.5Y-95.0
X362.5Y-97.0
X362.5Y-99.0
X362.5Y-108.0
X362.5Y-110.0
X362.5Y-112.0
X362.5Y-114.0
X362.5Y-123.0
X362.5Y-125.0
X362.5Y-127.0
X362.5Y-129.0
X362.5Y-138.0
X362.5Y-140.0
X362.5Y-142.0
X362.5Y-144.0
T3
X275.0Y-115.5
X275.0Y-117.5
X275.0Y-121.5
X275.0Y-126.5
X354.408Y-79.0
X354.408Y-82.592
X354.408Y-94.0
X354.408Y-97.592
X354.408Y-109.0
X354.408Y-112.592
X354.408Y-124.0
X354.408Y-127.592
X354.408Y-139.0
X354.408Y-142.592
X358.0Y-79.0
X358.0Y-82.592
X358.0Y-94.0
X358.0Y-97.592
X358.0Y-109.0
X358.0Y-112.592
X358.0Y-124.0
X358.0Y-127.592
X358.0Y-139.0
X358.0Y-142.592
T4
X213.84Y-96.5
X224.0Y-96.5
X239.34Y-96.5
X241.3Y-114.3
X241.3Y-124.46
X244.475Y-114.3
X244.475Y-124.46
X247.65Y-114.3
X247.65Y-124.46
X249.5Y-96.5
X250.825Y-114.3
X250.825Y-124.46
X254.0Y-114.3
X254.0Y-124.46
X257.175Y-114.3
X257.175Y-124.46
X260.35Y-114.3
X260.35Y-124.46
X263.525Y-114.3
X263.525Y-124.46
X266.7Y-114.3
X266.7Y-124.46
X269.875Y-114.3
X269.875Y-124.46
X307.5Y-115.0
X307.5Y-134.5
X309.612Y-124.562
X311.632Y-105.718
T5
X207.5Y-96.5
X210.04Y-96.5
X223.5Y-101.0
X223.5Y-108.62
T6
X209.55Y-87.06
X209.55Y-89.6
X212.09Y-87.06
X212.09Y-89.6
X214.63Y-87.06
X214.63Y-89.6
X217.17Y-87.06
X217.17Y-89.6
X219.71Y-87.06
X219.71Y-89.6
X222.25Y-87.06
X222.25Y-89.6
X223.8Y-133.5
X224.79Y-87.06
X224.79Y-89.6
X226.34Y-133.5
X227.33Y-87.06
X227.33Y-89.6
X228.88Y-133.5
X229.87Y-87.06
X229.87Y-89.6
X231.42Y-133.5
X232.41Y-87.06
X232.41Y-89.6
X233.96Y-133.5
X234.95Y-87.06
X234.95Y-89.6
X236.5Y-133.5
X237.49Y-87.06
X237.49Y-89.6
X240.03Y-87.06
X240.03Y-89.6
X241.46Y-133.5
X242.57Y-87.06
X242.57Y-89.6
X244.0Y-133.5
X245.11Y-87.06
X245.11Y-89.6
X247.65Y-87.06
X247.65Y-89.6
X249.0Y-133.5
X250.19Y-87.06
X250.19Y-89.6
X251.54Y-133.5
X252.73Y-87.06
X252.73Y-89.6
X254.08Y-133.5
X255.27Y-87.06
X255.27Y-89.6
X256.62Y-133.5
X257.81Y-87.06
X257.81Y-89.6
X261.5Y-133.5
X264.04Y-133.5
X266.58Y-133.5
X269.12Y-133.5
X273.96Y-133.5
X276.5Y-133.5
X283.5Y-88.0
X283.5Y-90.77
X283.5Y-93.54
X283.5Y-96.31
X283.5Y-99.08
X283.5Y-101.85
X283.5Y-104.62
X283.5Y-107.39
X283.5Y-110.16
X283.5Y-112.93
X283.5Y-115.7
X283.5Y-118.47
X283.5Y-121.24
X283.5Y-124.01
X283.5Y-126.78
X283.5Y-129.55
X283.5Y-132.32
X283.5Y-135.09
X283.5Y-137.86
X286.34Y-89.385
X286.34Y-92.155
X286.34Y-94.925
X286.34Y-97.695
X286.34Y-100.465
X286.34Y-103.235
X286.34Y-106.005
X286.34Y-108.775
X286.34Y-111.545
X286.34Y-114.315
X286.34Y-117.085
X286.34Y-119.855
X286.34Y-122.625
X286.34Y-125.395
X286.34Y-128.165
X286.34Y-130.935
X286.34Y-133.705
X286.34Y-136.475
X317.0Y-79.5
X317.0Y-87.0
X317.0Y-94.5
X317.0Y-102.0
X317.0Y-109.5
X317.0Y-117.0
X317.0Y-124.5
X317.0Y-132.0
X317.0Y-139.5
X317.0Y-147.0
X319.5Y-79.5
X319.5Y-87.0
X319.5Y-94.5
X319.5Y-102.0
X319.5Y-109.5
X319.5Y-117.0
X319.5Y-124.5
X319.5Y-132.0
X319.5Y-139.5
X319.5Y-147.0
X325.83Y-87.82
X325.83Y-90.59
X325.83Y-93.36
X325.83Y-96.13
X325.83Y-98.9
X325.83Y-101.67
X325.83Y-104.44
X325.83Y-107.21
X325.83Y-109.98
X325.83Y-112.75
X325.83Y-115.52
X325.83Y-118.29
X325.83Y-121.06
X325.83Y-123.83
X325.83Y-126.6
X325.83Y-129.37
X325.83Y-132.14
X325.83Y-134.91
X325.83Y-137.68
X328.67Y-89.205
X328.67Y-91.975
X328.67Y-94.745
X328.67Y-97.515
X328.67Y-100.285
X328.67Y-103.055
X328.67Y-105.825
X328.67Y-108.595
X328.67Y-111.365
X328.67Y-114.135
X328.67Y-116.905
X328.67Y-119.675
X328.67Y-122.445
X328.67Y-125.215
X328.67Y-127.985
X328.67Y-130.755
X328.67Y-133.525
X328.67Y-136.295
T7
X335.0Y-91.44
X335.0Y-93.98
X335.0Y-96.52
X335.0Y-99.06
X335.0Y-101.6
X335.0Y-104.14
X335.0Y-106.68
X335.0Y-109.22
X335.0Y-111.76
X335.0Y-114.3
X335.0Y-116.84
X335.0Y-119.38
X335.0Y-121.92
X335.0Y-124.46
X335.0Y-127.0
X335.0Y-129.54
X335.0Y-132.08
X335.0Y-134.62
T8
X229.0Y-96.5
X231.5Y-96.5
X234.0Y-96.5
T9
X216.0Y-102.92
X216.0Y-108.0
X216.0Y-117.0
X216.0Y-122.08
T10
X284.92Y-81.18
X284.92Y-144.68
T11
X327.25Y-81.0
X327.25Y-144.5
T12
X300.75Y-79.75
X300.75Y-80.5
X300.75Y-81.25
X300.75Y-111.75
X300.75Y-112.5
X300.75Y-113.25
X300.75Y-143.75
X300.75Y-144.5
X300.75Y-145.25
X302.25Y-79.75
X302.25Y-80.5
X302.25Y-81.25
X302.25Y-111.75
X302.25Y-112.5
X302.25Y-113.25
X302.25Y-143.75
X302.25Y-144.5
X302.25Y-145.25
X338.75Y-80.25
X338.75Y-81.0
X338.75Y-81.75
X338.75Y-95.25
X338.75Y-96.0
X338.75Y-96.75
X338.75Y-110.25
X338.75Y-111.0
X338.75Y-111.75
X338.75Y-125.25
X338.75Y-126.0
X338.75Y-126.75
X338.75Y-140.25
X338.75Y-141.0
X338.75Y-141.75
X340.25Y-80.25
X340.25Y-81.0
X340.25Y-81.75
X340.25Y-95.25
X340.25Y-96.0
X340.25Y-96.75
X340.25Y-110.25
X340.25Y-111.0
X340.25Y-111.75
X340.25Y-125.25
X340.25Y-126.0
X340.25Y-126.75
X340.25Y-140.25
X340.25Y-141.0
X340.25Y-141.75
X357.75Y-87.75
X357.75Y-89.25
X357.75Y-102.75
X357.75Y-104.25
X357.75Y-117.75
X357.75Y-119.25
X357.75Y-132.75
X357.75Y-134.25
X358.5Y-87.75
X358.5Y-89.25
X358.5Y-102.75
X358.5Y-104.25
X358.5Y-117.75
X358.5Y-119.25
X358.5Y-132.75
X358.5Y-134.25
X359.25Y-87.75
X359.25Y-89.25
X359.25Y-102.75
X359.25Y-104.25
X359.25Y-117.75
X359.25Y-119.25
X359.25Y-132.75
X359.25Y-134.25
T13
X203.0Y-78.0
X203.0Y-147.0
X297.0Y-78.0
X297.0Y-147.0
T14
X231.5Y-112.9
T0
M30
